<svg width="12" height="12" viewBox="0 0 12 12" fill="none" xmlns="http://www.w3.org/2000/svg">
<path d="M8.85579 2.53329C9.31772 2.53329 9.68884 2.163 9.68884 1.70274V0.832211C9.68884 0.371121 9.31772 0 8.85579 0C8.39678 0 8.02441 0.371121 8.02441 0.832211V1.70274C8.02441 2.163 8.39678 2.53329 8.85579 2.53329Z" fill="#7E8485"/>
<path d="M11.8146 1.44115H10.1373V1.86267C10.1373 2.56285 9.56959 3.13098 8.87067 3.13098C8.17091 3.13098 7.60403 2.56285 7.60403 1.86267V1.44115H4.22395V1.86267C4.22395 2.56285 3.65706 3.13098 2.95731 3.13098C2.25672 3.13098 1.69066 2.56285 1.69066 1.86267V1.44115L0 1.41949V11.9996L0.845123 12H10.9824L11.8276 11.9971L11.8146 1.44115ZM10.9824 11.1582H0.845123V4.39804H10.9824V11.1582Z" fill="#7E8485"/>
<path d="M2.94222 2.53329C3.40331 2.53329 3.77526 2.163 3.77526 1.70274V0.832211C3.77526 0.371121 3.40331 0 2.94222 0C2.48363 0 2.11084 0.371121 2.11084 0.832211V1.70274C2.11084 2.163 2.48363 2.53329 2.94222 2.53329Z" fill="#7E8485"/>
<path d="M3.12685 8.96273C3.30095 9.0577 3.69623 9.21764 4.09401 9.21764C4.59842 9.21764 4.85291 8.97564 4.85291 8.66825C4.85291 8.25423 4.44222 8.06804 4.01654 8.06804H3.62042V7.37078H4.00196C4.32893 7.37078 4.73837 7.24291 4.73837 6.89136C4.73837 6.64145 4.53886 6.45652 4.12483 6.45652C3.78662 6.45652 3.42924 6.60396 3.2618 6.70685L3.06312 6.00417C3.3147 5.84423 3.80494 5.69095 4.34934 5.69095C5.23195 5.69095 5.72094 6.15662 5.72094 6.72476C5.72094 7.16669 5.47353 7.51823 4.96121 7.68984V7.70358C5.45979 7.79272 5.8634 8.1705 5.8634 8.71906C5.8634 9.44756 5.21737 9.98446 4.16315 9.98446C3.62542 9.98446 3.17308 9.84451 2.93066 9.69622L3.12685 8.96273Z" fill="#7E8485"/>
<path d="M7.74355 6.62394H7.73147L6.93882 7.00047L6.7793 6.27156L7.88433 5.76132H8.68322V9.91488H7.74355V6.62394Z" fill="#7E8485"/>
</svg>
