<svg width="16" height="16" viewBox="0 0 16 16" fill="none" xmlns="http://www.w3.org/2000/svg">
<path d="M10.8438 1.90625H9.40625V1.40625C9.40625 1.14737 9.19637 0.9375 8.9375 0.9375H7.45094C7.25747 0.391844 6.73612 0 6.125 0C5.51388 0 4.99253 0.391844 4.79906 0.9375H3.28125C3.02238 0.9375 2.8125 1.14737 2.8125 1.40625V1.90625H1.40625C0.630844 1.90625 0 2.53709 0 3.3125V14.5938C0 15.3692 0.630844 16 1.40625 16H10.8438C11.6192 16 12.25 15.3692 12.25 14.5938V3.3125C12.25 2.53709 11.6192 1.90625 10.8438 1.90625ZM3.75 1.875H5.1875C5.44637 1.875 5.65625 1.66513 5.65625 1.40625C5.65625 1.14778 5.86653 0.9375 6.125 0.9375C6.38347 0.9375 6.59375 1.14778 6.59375 1.40625C6.59375 1.66513 6.80363 1.875 7.0625 1.875H8.46875V2.375C8.46875 2.63347 8.25847 2.84375 8 2.84375H4.21875C3.96028 2.84375 3.75 2.63347 3.75 2.375V1.875ZM11.3125 14.5938C11.3125 14.8522 11.1022 15.0625 10.8438 15.0625H1.40625C1.14778 15.0625 0.9375 14.8522 0.9375 14.5938V3.3125C0.9375 3.05403 1.14778 2.84375 1.40625 2.84375H2.89313C3.08663 3.38934 3.60766 3.78125 4.21875 3.78125H8C8.61109 3.78125 9.13213 3.38934 9.32563 2.84375H10.8438C11.1022 2.84375 11.3125 3.05403 11.3125 3.3125V14.5938Z" fill="#7E8485"/>
<path d="M5.52167 8.14005C5.34017 7.95548 5.04336 7.95302 4.8588 8.13458L3.28398 9.68358L2.6752 9.0748C2.49217 8.89174 2.19536 8.89174 2.0123 9.0748C1.82923 9.25786 1.82923 9.55464 2.0123 9.7377L2.94983 10.6752C3.0413 10.7667 3.16127 10.8125 3.28127 10.8125C3.39995 10.8125 3.51873 10.7677 3.60995 10.6779L5.5162 8.80292C5.70077 8.62139 5.7032 8.32461 5.52167 8.14005Z" fill="#7E8485"/>
<path d="M5.52167 11.4213C5.34017 11.2367 5.04336 11.2343 4.8588 11.4158L3.28398 12.9648L2.6752 12.356C2.49217 12.173 2.19536 12.173 2.0123 12.356C1.82923 12.5391 1.82923 12.8359 2.0123 13.019L2.94983 13.9565C3.0413 14.0479 3.16127 14.0937 3.28127 14.0937C3.39995 14.0937 3.51873 14.0489 3.60995 13.9592L5.5162 12.0842C5.70077 11.9026 5.7032 11.6059 5.52167 11.4213Z" fill="#7E8485"/>
<path d="M4.55023 6.73105L3.94417 6.12498L4.5502 5.51895C4.73327 5.33589 4.73327 5.03911 4.5502 4.85605C4.36717 4.67298 4.07036 4.67298 3.8873 4.85605L3.28127 5.46208L2.6752 4.85605C2.49217 4.67298 2.19536 4.67298 2.0123 4.85605C1.82923 5.03911 1.82923 5.33589 2.0123 5.51895L2.61836 6.12498L2.01233 6.73102C1.82927 6.91408 1.82927 7.21089 2.01233 7.39395C2.19536 7.57698 2.49217 7.57702 2.67523 7.39395L3.28127 6.78789L3.88733 7.39395C4.07036 7.57698 4.36717 7.57702 4.55023 7.39395C4.7333 7.21089 4.7333 6.91411 4.55023 6.73105Z" fill="#7E8485"/>
<path d="M9.90625 5.65625H7.0625C6.80362 5.65625 6.59375 5.86612 6.59375 6.125C6.59375 6.38388 6.80362 6.59375 7.0625 6.59375H9.90625C10.1651 6.59375 10.375 6.38388 10.375 6.125C10.375 5.86612 10.1651 5.65625 9.90625 5.65625Z" fill="#7E8485"/>
<path d="M9.90625 8.9375H7.0625C6.80362 8.9375 6.59375 9.14737 6.59375 9.40625C6.59375 9.66513 6.80362 9.875 7.0625 9.875H9.90625C10.1651 9.875 10.375 9.66513 10.375 9.40625C10.375 9.14737 10.1651 8.9375 9.90625 8.9375Z" fill="#7E8485"/>
<path d="M9.90625 12.2188H7.0625C6.80362 12.2188 6.59375 12.4286 6.59375 12.6875C6.59375 12.9464 6.80362 13.1562 7.0625 13.1562H9.90625C10.1651 13.1562 10.375 12.9464 10.375 12.6875C10.375 12.4286 10.1651 12.2188 9.90625 12.2188Z" fill="#7E8485"/>
<path d="M14.5938 2.84375C13.8183 2.84375 13.1875 3.47459 13.1875 4.25C13.1875 4.54819 13.1875 11.441 13.1875 11.75C13.1875 11.8004 13.1965 11.8527 13.2111 11.8968L14.1486 14.7405C14.2119 14.9327 14.3914 15.0625 14.5938 15.0625C14.7961 15.0625 14.9756 14.9327 15.0389 14.7405L15.9764 11.8968C15.9922 11.8489 16 11.7958 16 11.75C16 11.4415 16 4.54941 16 4.25C16 3.47459 15.3692 2.84375 14.5938 2.84375ZM14.5938 13.0966L14.2066 11.9223C14.3251 11.8622 14.457 11.8304 14.5938 11.8304C14.7305 11.8304 14.8624 11.8622 14.9809 11.9223L14.5938 13.0966ZM15.0625 10.9549C14.9115 10.9143 14.7543 10.8929 14.5938 10.8929C14.4332 10.8929 14.276 10.9143 14.125 10.9549V6.59375H15.0625V10.9549ZM15.0625 5.65625H14.125V4.25C14.125 3.99153 14.3353 3.78125 14.5938 3.78125C14.8522 3.78125 15.0625 3.99153 15.0625 4.25V5.65625Z" fill="#7E8485"/>
</svg>
