<svg width="11" height="11" viewBox="0 0 11 11" fill="none" xmlns="http://www.w3.org/2000/svg">
<path d="M5.39643 5.9474L10.0089 1.32216C10.1599 1.17062 10.1597 0.925268 10.0081 0.773981C9.85656 0.622811 9.61108 0.623202 9.45993 0.774762L5.122 5.1247L0.784093 0.774606C0.632923 0.623065 0.387594 0.622674 0.236034 0.773825C0.160059 0.849663 0.12207 0.949017 0.12207 1.04837C0.12207 1.14747 0.159804 1.24644 0.235252 1.32214L4.84759 5.9474C4.92021 6.02039 5.01903 6.06135 5.122 6.06135C5.22497 6.06135 5.32368 6.02027 5.39643 5.9474Z" fill="#555555"/>
<path d="M5.39659 10.1215L10.009 5.4963C10.1601 5.34476 10.1598 5.09941 10.0083 4.94812C9.85673 4.79695 9.61124 4.79734 9.46009 4.9489L5.12216 9.29884L0.784257 4.94875C0.633087 4.79721 0.387758 4.79682 0.236198 4.94797C0.160223 5.0238 0.122234 5.12316 0.122234 5.22251C0.122234 5.32161 0.159968 5.42058 0.235416 5.49628L4.84775 10.1215C4.92037 10.1945 5.0192 10.2355 5.12216 10.2355C5.22513 10.2355 5.32384 10.1944 5.39659 10.1215Z" fill="#555555"/>
</svg>
