<svg width="36" height="35" viewBox="0 0 36 35" fill="none" xmlns="http://www.w3.org/2000/svg">
<ellipse cx="17.8977" cy="17.5" rx="17.8977" ry="17.5" fill="#C0C0C0"/>
<path d="M22.6559 26.3039H11.6072C10.4513 26.3039 9.51172 25.3644 9.51172 24.2084V13.1597C9.51172 12.0038 10.4513 11.0642 11.6072 11.0642H18.084C18.3995 11.0642 18.6555 11.3202 18.6555 11.6357C18.6555 11.9512 18.3995 12.2072 18.084 12.2072H11.6072C11.0822 12.2072 10.6547 12.6347 10.6547 13.1597V24.2084C10.6547 24.7335 11.0822 25.161 11.6072 25.161H22.6559C23.181 25.161 23.6085 24.7335 23.6085 24.2084V17.7316C23.6085 17.4162 23.8645 17.1601 24.18 17.1601C24.4954 17.1601 24.7514 17.4155 24.7514 17.7316V24.2084C24.7514 25.3644 23.8119 26.3039 22.6559 26.3039Z" fill="white"/>
<path d="M16.1962 20.1913C16.0461 20.1913 15.8997 20.1318 15.7923 20.0237C15.6567 19.8888 15.5987 19.6944 15.6361 19.5078L16.1748 16.8134C16.1969 16.7022 16.2517 16.6008 16.331 16.5215L24.223 8.6305C25.0397 7.81359 26.3687 7.81359 27.1863 8.6305C27.5817 9.02591 27.7997 9.55178 27.7997 10.1118C27.7997 10.6719 27.5817 11.1976 27.1855 11.5931L19.2944 19.485C19.2152 19.565 19.1131 19.6191 19.0026 19.6411L16.3089 20.1798C16.2715 20.1875 16.2334 20.1913 16.1962 20.1913ZM18.8905 19.0811H18.8982H18.8905ZM17.2614 17.2074L16.9253 18.8913L18.6085 18.5545L26.3778 10.7854C26.5576 10.6048 26.6567 10.3663 26.6567 10.1118C26.6567 9.85733 26.5576 9.61875 26.3778 9.43821C26.0075 9.06707 25.4032 9.06707 25.0307 9.43821L17.2614 17.2074Z" fill="white"/>
<path d="M25.7037 12.8388C25.5575 12.8388 25.4111 12.7832 25.2999 12.6711L23.145 10.5155C22.9217 10.2923 22.9217 9.93034 23.145 9.7071C23.3682 9.48386 23.7301 9.48386 23.9535 9.7071L26.1083 11.8627C26.3315 12.086 26.3315 12.4479 26.1083 12.6711C25.9963 12.7825 25.85 12.8388 25.7037 12.8388Z" fill="white"/>
</svg>
