<svg width="31" height="31" viewBox="0 0 31 31" fill="none" xmlns="http://www.w3.org/2000/svg">
<path d="M15.8473 30.7429C24.137 30.7429 30.8572 24.0271 30.8572 15.7429C30.8572 7.45861 24.137 0.742878 15.8473 0.742878C7.5576 0.742878 0.837463 7.45861 0.837463 15.7429C0.837463 24.0271 7.5576 30.7429 15.8473 30.7429Z" fill="#DA251D"/>
<path d="M15.8473 30.7429C24.137 30.7429 30.8572 24.0271 30.8572 15.7429C30.8572 7.45861 24.137 0.742878 15.8473 0.742878C7.5576 0.742878 0.837463 7.45861 0.837463 15.7429C0.837463 24.0271 7.5576 30.7429 15.8473 30.7429Z" fill="#E7625C"/>
<path d="M11.087 8.65914L8.76569 10.9805L20.6092 22.824L22.9305 20.5026L11.087 8.65914Z" fill="white"/>
<path d="M20.6081 8.65833L8.76459 20.5018L11.0859 22.8232L22.9294 10.9797L20.6081 8.65833Z" fill="white"/>
</svg>
