<svg width="12" height="18" viewBox="0 0 12 18" fill="none" xmlns="http://www.w3.org/2000/svg">
<path fill-rule="evenodd" clip-rule="evenodd" d="M0 6.00001C0 2.69167 2.69166 0 6 0C9.30834 0 12 2.69167 12 5.99998C12 6.99314 11.7517 7.9779 11.2815 8.84837L6.32811 17.8066C6.26219 17.926 6.13658 18 6 18C5.86342 18 5.73781 17.926 5.67189 17.8066L0.72035 8.85132C0.248308 7.9779 0 6.99318 0 6.00001ZM3.00002 6.00001C3.00002 7.65418 4.34583 9 6 9C7.65417 9 8.99998 7.65418 8.99998 6.00001C8.99998 4.34584 7.65417 3.00002 6 3.00002C4.34583 3.00002 3.00002 4.34584 3.00002 6.00001Z" fill="#4CAF50"/>
</svg>
