<svg width="14" height="12" viewBox="0 0 14 12" fill="none" xmlns="http://www.w3.org/2000/svg">
<path d="M2.51825 3.70069C2.54934 3.88808 2.62161 4.00657 2.69304 4.08137C2.8628 5.21248 3.80819 6.26208 4.67291 6.26208C5.68049 6.26208 6.59816 5.12592 6.77463 4.08389C6.84774 4.00994 6.92085 3.89061 6.95279 3.70069C7.00993 3.48892 7.08388 3.12084 6.95447 2.94773C6.94774 2.93933 6.94018 2.93008 6.93346 2.92336C7.05531 2.47881 7.20909 1.55947 6.65866 0.933408C6.60992 0.871222 6.30067 0.502308 5.641 0.307346L5.32587 0.198941C4.80653 0.0384335 4.48047 0.00229842 4.46619 0.000617717C4.44266 -0.00106299 4.41829 0.000617691 4.3956 0.00650015C4.37795 0.0115423 4.31576 0.0283493 4.26786 0.0216265C4.14349 0.0039791 3.95693 0.0678458 3.92416 0.0804511C3.8813 0.0980985 2.8754 0.500627 2.57035 1.43762C2.54178 1.51325 2.41993 1.91158 2.58212 2.88807C2.55775 2.90487 2.5359 2.92504 2.51741 2.94941C2.38632 3.12084 2.46027 3.48892 2.51825 3.70069Z" fill="#7E8485"/>
<path d="M6.5413 10.8302C6.35558 10.726 6.1539 10.626 5.93877 10.531C5.83456 10.4848 5.72868 10.4411 5.62363 10.3999C5.54128 10.3688 5.4438 10.3285 5.37573 10.3109L4.37907 10.0419L6.24381 6.24524L7.04299 6.74945C7.2119 6.85533 7.33627 6.94525 7.47241 7.04525L7.50098 7.06626C7.63628 7.16626 7.76905 7.26879 7.89931 7.37467C8.1825 7.60325 8.43293 7.82678 8.66571 8.05788C8.68336 8.07552 8.70016 8.09149 8.71781 8.10914C8.79596 8.02258 8.87243 7.94527 8.94891 7.86207C8.85143 7.57215 8.73294 7.30408 8.5884 7.08895C8.5884 7.08895 8.38335 6.80911 7.89679 6.62256C7.89679 6.62256 7.85561 6.60995 7.79258 6.58894C7.3598 6.38642 6.94887 6.25616 6.94887 6.25616C6.86063 6.22423 6.78332 6.19314 6.71357 6.16288C6.41945 6.0175 6.1749 5.85363 6.12448 5.69901C6.12448 5.69901 6.29423 7.3419 4.85807 7.38055L4.65807 7.37131C3.35637 7.25534 3.26981 5.69565 3.26981 5.69565C3.13367 6.12339 1.49667 6.62088 1.49667 6.62088C1.0101 6.80743 0.804217 7.08811 0.804217 7.08811C0.0848755 8.15536 0 10.5302 0 10.5302C0.00924387 11.0731 0.243702 11.1294 0.243702 11.1294C1.89835 11.868 4.4942 11.9983 4.4942 11.9983C4.63454 12.0016 4.76479 11.9941 4.89505 11.9865L4.89841 12C4.89841 12 6.16566 11.9353 7.49426 11.6445L7.33207 11.4319C7.20013 11.2579 6.90517 11.0336 6.5413 10.8302Z" fill="#7E8485"/>
<path d="M6.06885 5.76885C6.0865 5.74616 6.10582 5.72347 6.12431 5.69826C6.12011 5.68313 6.11927 5.67557 6.11927 5.67557C6.1033 5.70834 6.08481 5.73607 6.06885 5.76885Z" fill="#7E8485"/>
<path d="M3.27709 5.69321L3.27289 5.67557L3.26953 5.69406C3.27037 5.69069 3.27373 5.68733 3.27457 5.68397C3.27541 5.68481 3.27625 5.68817 3.27709 5.69321Z" fill="#7E8485"/>
<path d="M11.6658 6.45537C11.1944 6.78815 10.7549 7.16463 10.3364 7.56043C9.91706 7.95876 9.51958 8.3781 9.13722 8.81088C8.9952 8.97223 8.85738 9.13525 8.7204 9.29912C8.71872 9.2966 8.71704 9.29408 8.7162 9.29156C8.51452 9.02265 8.29603 8.78315 8.06913 8.55877C7.84224 8.33524 7.60694 8.12851 7.36492 7.93187C7.24306 7.83439 7.12037 7.73859 6.99516 7.64447C6.86491 7.55035 6.75062 7.46547 6.59095 7.36463L5.59766 9.38568C5.68841 9.41005 5.82035 9.46131 5.93212 9.50501C6.05061 9.55039 6.16657 9.59913 6.28254 9.65039C6.51448 9.75291 6.74053 9.86468 6.95651 9.98485C7.3834 10.2235 7.78089 10.5143 8.00779 10.8109L8.77166 11.8126L9.21117 10.8597C9.43218 10.3823 9.69689 9.88317 9.96833 9.40753C10.2423 8.92853 10.5347 8.45877 10.8515 8.00582C11.1683 7.55287 11.5078 7.11505 11.8877 6.71168C12.2675 6.31083 12.6869 5.93771 13.1869 5.673C12.644 5.83435 12.1364 6.12595 11.6658 6.45537Z" fill="#7E8485"/>
</svg>
