<svg width="15" height="16" viewBox="0 0 15 16" fill="none" xmlns="http://www.w3.org/2000/svg">
<g opacity="0.98">
<path d="M10.0771 1.7192L9.60825 1.10378L10.0771 0.488424C10.1789 0.3549 10.1532 0.164119 10.0197 0.0622907C9.9665 0.0217574 9.90147 -0.000147387 9.83461 4.9938e-06H7.43461C7.26539 -0.000947387 7.12688 0.134443 7.12402 0.303662V3.00953H7.73355V2.20953H9.83461C10.0033 2.20915 10.1398 2.07208 10.1394 1.90339C10.1392 1.83684 10.1173 1.77216 10.0771 1.7192Z" fill="#7E8485"/>
<path d="M0.451886 9.60001C0.203619 9.59872 0.00129524 9.79891 0 10.0471C0 10.0491 0 10.0511 0 10.0531V16H3.84762V9.60001H0.451886ZM1.44762 14.3238C1.44762 14.4921 1.31116 14.6286 1.14286 14.6286C0.974552 14.6286 0.838095 14.4921 0.838095 14.3238V13.6689C0.838095 13.5006 0.974552 13.3642 1.14286 13.3642C1.31116 13.3642 1.44762 13.5006 1.44762 13.6689V14.3238ZM1.44762 11.773C1.44762 11.9413 1.31116 12.0778 1.14286 12.0778C0.974552 12.0778 0.838095 11.9413 0.838095 11.773V11.1181C0.838095 10.9498 0.974552 10.8133 1.14286 10.8133C1.31116 10.8133 1.44762 10.9498 1.44762 11.1181V11.773ZM3.00952 14.3238C3.00952 14.4921 2.87307 14.6286 2.70476 14.6286C2.53646 14.6286 2.4 14.4921 2.4 14.3238V13.6689C2.4 13.5006 2.53646 13.3642 2.70476 13.3642C2.87307 13.3642 3.00952 13.5006 3.00952 13.6689V14.3238ZM3.00952 11.773C3.00952 11.9413 2.87307 12.0778 2.70476 12.0778C2.53646 12.0778 2.4 11.9413 2.4 11.773V11.1181C2.4 10.9498 2.53646 10.8133 2.70476 10.8133C2.87307 10.8133 3.00952 10.9498 3.00952 11.1181V11.773Z" fill="#7E8485"/>
<path d="M7.37947 5.35239L4.45703 7.83825V16H5.79036V12.8263C5.78633 12.6685 5.91094 12.5374 6.06869 12.5333C6.07383 12.5332 6.07897 12.5332 6.08412 12.5333H8.70385C8.85833 12.5295 8.98671 12.6515 8.99059 12.8059C8.99074 12.8127 8.99071 12.8195 8.99036 12.8263V16H10.2856V7.83543L7.37947 5.35239ZM8.70385 10.8191H6.0669C5.89859 10.8191 5.76214 10.6826 5.76214 10.5143C5.76214 10.346 5.89859 10.2095 6.0669 10.2095H8.70385C8.87215 10.2095 9.00861 10.346 9.00861 10.5143C9.00861 10.6826 8.87215 10.8191 8.70385 10.8191Z" fill="#7E8485"/>
<path d="M14.4115 9.60001C14.4095 9.60001 14.4075 9.60001 14.4055 9.60001H10.8955V16H14.8574V10.0531C14.8594 9.80481 14.6597 9.60199 14.4115 9.60001ZM12.4574 14.3238C12.4574 14.4921 12.321 14.6286 12.1527 14.6286C11.9843 14.6286 11.8479 14.4921 11.8479 14.3238V13.6689C11.8479 13.5006 11.9843 13.3642 12.1527 13.3642C12.321 13.3642 12.4574 13.5006 12.4574 13.6689V14.3238ZM12.4574 11.773C12.4574 11.9413 12.321 12.0778 12.1527 12.0778C11.9843 12.0778 11.8479 11.9413 11.8479 11.773V11.1181C11.8479 10.9498 11.9843 10.8133 12.1527 10.8133C12.321 10.8133 12.4574 10.9498 12.4574 11.1181V11.773ZM13.9812 14.3238C13.9812 14.4921 13.8448 14.6286 13.6765 14.6286C13.5082 14.6286 13.3717 14.4921 13.3717 14.3238V13.6689C13.3717 13.5006 13.5082 13.3642 13.6765 13.3642C13.8448 13.3642 13.9812 13.5006 13.9812 13.6689V14.3238ZM13.9812 11.773C13.9812 11.9413 13.8448 12.0778 13.6765 12.0778C13.5082 12.0778 13.3717 11.9413 13.3717 11.773V11.1181C13.3717 10.9498 13.5082 10.8133 13.6765 10.8133C13.8448 10.8133 13.9812 10.9498 13.9812 11.1181V11.773Z" fill="#7E8485"/>
<path d="M7.39446 3.42233L3.0332 7.15605L3.58436 7.79738L7.19659 4.71948C7.31069 4.62226 7.47854 4.62241 7.59244 4.71989L11.1897 7.79864L11.7535 7.15429L7.39446 3.42233Z" fill="#7E8485"/>
<path d="M8.38085 13.1429H6.3999V16H8.38085V13.1429Z" fill="#7E8485"/>
</g>
</svg>
