<svg width="17" height="17" viewBox="0 0 17 17" fill="none" xmlns="http://www.w3.org/2000/svg">
<path d="M8.53405 16.2773H7.52989C6.71773 16.2773 6.05695 15.6166 6.05695 14.8044V14.4647C5.71167 14.3544 5.3762 14.2152 5.05392 14.0484L4.81317 14.2891C4.23008 14.8729 3.29604 14.8558 2.72989 14.2889L2.02017 13.5792C1.45301 13.0127 1.4367 12.079 2.02036 11.4959L2.26092 11.2554C2.09414 10.9331 1.95492 10.5977 1.84458 10.2523H1.50489C0.692764 10.2523 0.0319824 9.59159 0.0319824 8.77944V7.77525C0.0319824 6.96309 0.692764 6.30234 1.50492 6.30234H1.84461C1.95495 5.95703 2.09417 5.62159 2.26095 5.29931L2.0202 5.05859C1.43689 4.47591 1.45298 3.54209 2.02039 2.97531L2.73017 2.26556C3.29764 1.69731 4.23145 1.68313 4.81342 2.26575L5.05395 2.50628C5.37623 2.33953 5.7117 2.20028 6.05698 2.08994V1.75025C6.05698 0.938094 6.71773 0.277344 7.52992 0.277344H8.53408C9.34623 0.277344 10.007 0.938094 10.007 1.75025V2.08997C10.3523 2.20028 10.6877 2.33953 11.01 2.50631L11.2508 2.26556C11.8339 1.68175 12.7679 1.69887 13.334 2.26578L14.0438 2.97547C14.6109 3.542 14.6272 4.47572 14.0436 5.05875L13.803 5.29931C13.9698 5.62159 14.109 5.957 14.2194 6.30234H14.559C15.3712 6.30234 16.032 6.96309 16.032 7.77525V8.77944C16.032 9.59159 15.3712 10.2523 14.559 10.2523H14.2194C14.109 10.5977 13.9698 10.9331 13.803 11.2554L14.0438 11.4961C14.6271 12.0788 14.611 13.0126 14.0436 13.5794L13.3338 14.2892C12.7663 14.8574 11.8325 14.8716 11.2505 14.289L11.01 14.0484C10.6877 14.2152 10.3523 14.3544 10.007 14.4648V14.8045C10.007 15.6166 9.34623 16.2773 8.53405 16.2773ZM5.21064 13.0639C5.65836 13.3287 6.14023 13.5287 6.64286 13.6584C6.84986 13.7118 6.99448 13.8985 6.99448 14.1123V14.8044C6.99448 15.0997 7.2347 15.3398 7.52992 15.3398H8.53408C8.82929 15.3398 9.06951 15.0997 9.06951 14.8044V14.1123C9.06951 13.8985 9.21414 13.7118 9.42114 13.6584C9.92376 13.5287 10.4056 13.3287 10.8534 13.0639C11.0376 12.955 11.2721 12.9846 11.4235 13.1359L11.9137 13.6262C12.1251 13.8378 12.4645 13.8329 12.6707 13.6264L13.3809 12.9163C13.5866 12.7108 13.5935 12.3713 13.3811 12.1592L12.8906 11.6687C12.7393 11.5174 12.7097 11.2829 12.8186 11.0987C13.0834 10.651 13.2834 10.1691 13.4131 9.66647C13.4665 9.45947 13.6532 9.31487 13.867 9.31487H14.5591C14.8543 9.31487 15.0945 9.07469 15.0945 8.77947V7.77528C15.0945 7.48006 14.8543 7.23987 14.5591 7.23987H13.867C13.6532 7.23987 13.4665 7.09525 13.4131 6.88828C13.2834 6.38562 13.0834 5.90375 12.8186 5.45606C12.7097 5.27187 12.7393 5.03731 12.8906 4.886L13.3809 4.39572C13.5929 4.18403 13.5873 3.84466 13.3811 3.63869L12.671 2.92853C12.4651 2.72241 12.1256 2.71638 11.9139 2.92834L11.4235 3.41881C11.2722 3.57016 11.0375 3.59978 10.8534 3.49084C10.4057 3.22606 9.9238 3.02603 9.42117 2.89631C9.21417 2.84291 9.06954 2.65622 9.06954 2.44244V1.75025C9.06954 1.45503 8.82933 1.21484 8.53411 1.21484H7.52995C7.23473 1.21484 6.99451 1.45503 6.99451 1.75025V2.44237C6.99451 2.65616 6.84989 2.84284 6.64289 2.89625C6.14026 3.02597 5.65839 3.226 5.21067 3.49078C5.02642 3.59969 4.79189 3.57006 4.64058 3.41875L4.15033 2.92847C3.93895 2.71684 3.59948 2.72175 3.39333 2.92825L2.68311 3.63844C2.47742 3.84387 2.47055 4.18334 2.68292 4.39547L3.17339 4.88594C3.3247 5.03725 3.35433 5.27181 3.24542 5.456C2.98064 5.90369 2.78064 6.38556 2.65092 6.88822C2.59748 7.09522 2.41079 7.23981 2.19704 7.23981H1.50492C1.2097 7.23984 0.969482 7.48003 0.969482 7.77525V8.77944C0.969482 9.07466 1.2097 9.31484 1.50492 9.31484H2.19701C2.41079 9.31484 2.59745 9.45947 2.65089 9.66644C2.78061 10.1691 2.98064 10.651 3.24539 11.0987C3.3543 11.2828 3.32467 11.5174 3.17336 11.6687L2.68308 12.159C2.47114 12.3707 2.47667 12.7101 2.68289 12.916L3.39304 13.6262C3.59889 13.8323 3.93839 13.8383 4.15008 13.6264L4.64051 13.1359C4.75201 13.0244 4.98398 12.9298 5.21064 13.0639Z" fill="#7E8485"/>
<path d="M8.03197 11.7586C6.11238 11.7586 4.55072 10.1969 4.55072 8.27734C4.55072 6.35778 6.11238 4.79609 8.03197 4.79609C9.95156 4.79609 11.5132 6.35778 11.5132 8.27734C11.5132 10.1969 9.95156 11.7586 8.03197 11.7586ZM8.03197 5.73359C6.62931 5.73359 5.48822 6.87472 5.48822 8.27734C5.48822 9.67997 6.62935 10.8211 8.03197 10.8211C9.4346 10.8211 10.5757 9.67997 10.5757 8.27734C10.5757 6.87472 9.43463 5.73359 8.03197 5.73359Z" fill="#7E8485"/>
</svg>
