<svg width="35" height="35" viewBox="0 0 35 35" fill="none" xmlns="http://www.w3.org/2000/svg">
<circle cx="17.5" cy="17.5" r="17.5" fill="#4CAF50"/>
<path d="M26.1166 19.7526L24.2306 18.2732C24.2663 17.9872 24.2931 17.6967 24.2931 17.4017C24.2931 17.1067 24.2663 16.8162 24.2306 16.5302L26.1211 15.0508C26.2909 14.9168 26.3401 14.6754 26.2284 14.4788L24.4406 11.3816C24.3289 11.1894 24.0965 11.1089 23.8954 11.1894L21.6697 12.0877C21.2093 11.7346 20.7043 11.4352 20.1591 11.2073L19.8239 8.83856C19.7836 8.62851 19.6004 8.46313 19.3769 8.46313H15.8015C15.5781 8.46313 15.3948 8.62851 15.3591 8.83856L15.0239 11.2073C14.4786 11.4352 13.9736 11.7302 13.5133 12.0877L11.2875 11.1894C11.0864 11.1134 10.854 11.1894 10.7423 11.3816L8.95453 14.4788C8.84279 14.671 8.89198 14.9123 9.06179 15.0508L10.9478 16.5302C10.9121 16.8162 10.8853 17.1067 10.8853 17.4017C10.8853 17.6967 10.9121 17.9872 10.9478 18.2732L9.06179 19.7526C8.89198 19.8866 8.84279 20.128 8.95453 20.3246L10.7423 23.4218C10.854 23.614 11.0864 23.6945 11.2875 23.614L13.5132 22.7157C13.9736 23.0688 14.4786 23.3682 15.0238 23.5961L15.359 25.9649C15.3948 26.1749 15.578 26.3403 15.8015 26.3403H19.3769C19.6003 26.3403 19.7836 26.1749 19.8194 25.9649L20.1546 23.5961C20.6998 23.3682 21.2048 23.0732 21.6652 22.7157L23.8909 23.614C24.092 23.69 24.3244 23.614 24.4361 23.4218L26.2238 20.3246C26.3356 20.1325 26.2864 19.8911 26.1166 19.7526ZM17.5892 20.5302C15.8596 20.5302 14.4607 19.1313 14.4607 17.4017C14.4607 15.6721 15.8596 14.2732 17.5892 14.2732C19.3188 14.2732 20.7177 15.6721 20.7177 17.4017C20.7177 19.1314 19.3188 20.5302 17.5892 20.5302Z" fill="white"/>
</svg>
