<svg width="23" height="21" viewBox="0 0 23 21" fill="none" xmlns="http://www.w3.org/2000/svg">
<path d="M10.0734 1.39058C10.5224 0.00861335 12.4776 0.00860977 12.9266 1.39058L14.4187 5.98278C14.6195 6.60081 15.1954 7.01925 15.8453 7.01925L20.6738 7.01925C22.1269 7.01925 22.731 8.87868 21.5555 9.73278L17.6491 12.5709C17.1234 12.9529 16.9034 13.6299 17.1042 14.248L18.5963 18.8402C19.0453 20.2221 17.4636 21.3713 16.288 20.5172L12.3817 17.6791C11.8559 17.2971 11.1441 17.2971 10.6183 17.6791L6.71196 20.5172C5.53639 21.3713 3.95467 20.2221 4.4037 18.8402L5.8958 14.248C6.09661 13.6299 5.87662 12.9529 5.35089 12.5709L1.44452 9.73278C0.268954 8.87867 0.87312 7.01925 2.32621 7.01925L7.15473 7.01925C7.80457 7.01925 8.38051 6.60081 8.58132 5.98278L10.0734 1.39058Z" fill="#F3BA2B"/>
</svg>
