<svg width="28" height="32" viewBox="0 0 28 32" fill="none" xmlns="http://www.w3.org/2000/svg">
<path d="M25.3658 17.6092C24.9037 17.0753 24.3836 16.5369 23.8139 16C24.3836 15.4631 24.9037 14.9247 25.3658 14.3908C26.3288 13.278 26.9978 12.234 27.3542 11.2879C27.7664 10.194 27.7541 9.25603 27.3176 8.5C26.8811 7.74397 26.075 7.26428 24.9216 7.07427C23.9239 6.90992 22.6853 6.96732 21.2402 7.24487C20.5467 7.37806 19.8204 7.55932 19.0706 7.78426C18.9066 7.09068 18.7208 6.43259 18.5143 5.81678C18.8352 5.51094 19.0358 5.07997 19.0358 4.6027C19.0358 3.67754 18.2831 2.9249 17.358 2.9249C17.2974 2.9249 17.2375 2.92828 17.1786 2.9346C17.0426 2.72837 16.9032 2.53683 16.76 2.3622C16.0186 1.4583 15.2001 1 14.3272 1C13.4542 1 12.6357 1.4583 11.8945 2.3622C11.2534 3.14396 10.6838 4.24534 10.2015 5.63564C9.97015 6.30279 9.76398 7.02242 9.58387 7.78426C8.83403 7.55932 8.10769 7.37799 7.41424 7.24487C5.96903 6.96732 4.73044 6.90992 3.73288 7.07427C2.57946 7.26428 1.77331 7.74397 1.33684 8.5C0.900375 9.25603 0.888052 10.194 1.30019 11.2879C1.65666 12.234 2.32566 13.278 3.28862 14.3908C3.75069 14.9247 4.27086 15.4631 4.84058 16C4.49886 16.322 4.17483 16.6445 3.87079 16.9663C3.7141 16.9178 3.54765 16.8916 3.3752 16.8916C2.45004 16.8916 1.69739 17.6443 1.69739 18.5694C1.69739 18.8847 1.78493 19.1798 1.93676 19.432C1.66726 19.8754 1.45439 20.3029 1.30019 20.7121C0.887988 21.806 0.900375 22.7439 1.33684 23.4999C1.77331 24.256 2.57946 24.7357 3.73288 24.9257C4.10307 24.9866 4.5064 25.0171 4.9412 25.0171C5.67808 25.0171 6.50536 24.9296 7.41417 24.7551C8.10763 24.6219 8.83397 24.4406 9.5838 24.2157C9.76392 24.9776 9.97008 25.6972 10.2015 26.3644C10.6837 27.7547 11.2533 28.856 11.8944 29.6378C12.6357 30.5417 13.4542 31 14.3272 31C15.2001 31 16.0186 30.5417 16.7599 29.6378C17.401 28.856 17.9706 27.7547 18.4529 26.3644C18.6843 25.6972 18.8905 24.9776 19.0706 24.2157C19.731 24.4138 20.3731 24.578 20.9906 24.7053C21.1622 25.4493 21.8297 26.006 22.6252 26.006C23.3098 26.006 23.8997 25.5936 24.1602 25.0043C24.4271 24.9904 24.682 24.9651 24.9215 24.9257C26.0749 24.7357 26.8811 24.256 27.3175 23.4999C27.754 22.7439 27.7663 21.806 27.3542 20.7121C26.9978 19.766 26.3288 18.722 25.3658 17.6092ZM21.481 8.49891C23.9396 8.02676 25.708 8.26593 26.2117 9.13848C26.7154 10.011 26.0383 11.6621 24.4002 13.5552C23.9447 14.0815 23.4292 14.6131 22.8616 15.1437C21.943 14.3543 20.9236 13.5749 19.8272 12.8246C19.7255 11.4999 19.5603 10.2274 19.3359 9.03715C20.0793 8.81088 20.7975 8.63019 21.481 8.49891ZM16.4987 19.7611C15.7751 20.1789 15.049 20.5692 14.3272 20.9297C13.6053 20.5692 12.8793 20.1789 12.1557 19.7611C11.4321 19.3433 10.7311 18.9097 10.058 18.4648C10.0093 17.6594 9.98426 16.8355 9.98426 15.9999C9.98426 15.1644 10.0093 14.3405 10.058 13.5351C10.7311 13.0902 11.4321 12.6566 12.1557 12.2388C12.8793 11.821 13.6054 11.4307 14.3272 11.0702C15.0491 11.4307 15.7751 11.821 16.4987 12.2388C17.2223 12.6565 17.9233 13.0902 18.5964 13.5351C18.6451 14.3405 18.6702 15.1644 18.6702 15.9999C18.6702 16.8355 18.6451 17.6594 18.5964 18.4648C17.9233 18.9098 17.2224 19.3433 16.4987 19.7611ZM18.4655 20.0673C18.3762 20.9295 18.2582 21.7627 18.1132 22.5575C17.3523 22.2857 16.5718 21.9713 15.7804 21.6175C16.2329 21.3778 16.6856 21.1277 17.1372 20.867C17.5887 20.6063 18.0317 20.3393 18.4655 20.0673ZM12.874 21.6175C12.0826 21.9713 11.302 22.2857 10.5412 22.5575C10.3962 21.7628 10.2782 20.9295 10.1889 20.0673C10.6227 20.3393 11.0657 20.6063 11.5172 20.867C11.9687 21.1277 12.4215 21.3778 12.874 21.6175ZM8.73564 17.5502C8.03357 17.0417 7.37101 16.5229 6.7552 15.9999C7.37101 15.477 8.03363 14.9582 8.73564 14.4497C8.71693 14.9614 8.70723 15.4786 8.70723 15.9999C8.70723 16.5213 8.717 17.0385 8.73564 17.5502ZM10.1889 11.9327C10.2782 11.0705 10.3961 10.2372 10.5412 9.4424C11.302 9.7142 12.0826 10.0287 12.874 10.3824C12.4215 10.6221 11.9687 10.8723 11.5172 11.1329C11.0657 11.3936 10.6227 11.6607 10.1889 11.9327ZM15.7804 10.3824C16.5718 10.0287 17.3523 9.7142 18.1132 9.4424C18.2582 10.2372 18.3762 11.0704 18.4655 11.9327C18.0316 11.6606 17.5886 11.3936 17.1372 11.1329C16.6857 10.8723 16.233 10.6221 15.7804 10.3824ZM19.9187 14.4498C20.6208 14.9583 21.2834 15.477 21.8992 16C21.2834 16.523 20.6207 17.0417 19.9187 17.5502C19.9374 17.0385 19.9471 16.5213 19.9471 16C19.9471 15.4787 19.9374 14.9615 19.9187 14.4498ZM11.4079 6.0541C12.2283 3.68897 13.3196 2.27697 14.3272 2.27697C14.8971 2.27697 15.4938 2.72907 16.0531 3.54959C15.8201 3.83774 15.6801 4.2041 15.6801 4.6027C15.6801 5.51605 16.4138 6.26078 17.3227 6.27968C17.5199 6.87366 17.6969 7.50965 17.8528 8.18089C16.7098 8.58173 15.5252 9.07483 14.3272 9.64914C13.1291 9.07483 11.9445 8.58173 10.8015 8.18089C10.9773 7.42403 11.1799 6.71167 11.4079 6.0541ZM4.2542 13.5552C2.61611 11.6621 1.93893 10.011 2.44269 9.13848C2.77611 8.56097 3.66347 8.26095 4.93833 8.26095C5.58958 8.26095 6.3421 8.33929 7.1734 8.49891C7.8569 8.63019 8.57506 8.81088 9.31845 9.03709C9.09409 10.2274 8.92885 11.4998 8.8272 12.8245C7.7308 13.5749 6.71146 14.3542 5.79281 15.1437C5.22526 14.6131 4.70963 14.0815 4.2542 13.5552ZM7.17347 23.501C4.71505 23.9732 2.94652 23.7341 2.44276 22.8615C2.10289 22.2728 2.30127 21.3296 2.96868 20.1971C3.09893 20.2297 3.23499 20.2472 3.3752 20.2472C4.30036 20.2472 5.053 19.4945 5.053 18.5693C5.053 18.2852 4.98175 18.0175 4.8566 17.7826C5.15018 17.4743 5.46246 17.1651 5.79288 16.8561C6.71146 17.6456 7.73086 18.4249 8.8272 19.1753C8.92885 20.5 9.09409 21.7725 9.31845 22.9627C8.57513 23.1891 7.85696 23.3697 7.17347 23.501ZM17.2464 25.9458C16.426 28.311 15.3347 29.723 14.3272 29.723C13.3197 29.723 12.2284 28.311 11.408 25.9458C11.1799 25.2883 10.9774 24.576 10.8016 23.819C11.9445 23.4182 13.1292 22.9251 14.3272 22.3508C15.5253 22.9251 16.7099 23.4182 17.8529 23.819C17.6771 24.576 17.4745 25.2883 17.2464 25.9458ZM26.2117 22.8615C25.9214 23.3643 25.2103 23.6564 24.1899 23.7235C23.9467 23.0963 23.3372 22.6502 22.6251 22.6502C22.0241 22.6502 21.496 22.9681 21.1997 23.4445C20.6013 23.3195 19.978 23.1582 19.3359 22.9628C19.5603 21.7725 19.7255 20.5 19.8272 19.1754C20.9236 18.425 21.9429 17.6457 22.8615 16.8562C23.4291 17.3868 23.9447 17.9184 24.4001 18.4447C26.0383 20.3378 26.7154 21.9889 26.2117 22.8615Z" fill="#4CAF50" stroke="#4CAF50" stroke-width="0.2"/>
<path d="M14.3254 13.3506C12.8644 13.3506 11.6758 14.5392 11.6758 16.0002C11.6758 17.4613 12.8644 18.6499 14.3254 18.6499C15.7863 18.6499 16.975 17.4613 16.975 16.0002C16.975 14.5392 15.7864 13.3506 14.3254 13.3506ZM14.3254 17.3728C13.5685 17.3728 12.9527 16.7571 12.9527 16.0002C12.9527 15.2432 13.5685 14.6275 14.3254 14.6275C15.0822 14.6275 15.698 15.2432 15.698 16.0002C15.698 16.7571 15.0823 17.3728 14.3254 17.3728Z" fill="#4CAF50" stroke="#4CAF50" stroke-width="0.2"/>
</svg>
