<svg width="30" height="30" viewBox="0 0 30 30" fill="none" xmlns="http://www.w3.org/2000/svg">
<path d="M0.878906 30H16.8164C17.3019 30 17.6953 29.6065 17.6953 29.1211V28.1836C17.6953 27.2127 16.9084 26.4258 15.9375 26.4258V25.375C15.9375 23.9836 14.8054 22.8516 13.4141 22.8516H4.28123C2.88986 22.8516 1.75781 23.9836 1.75781 25.375V26.4258C0.786895 26.4258 0 27.2127 0 28.1836V29.1211C0 29.6063 0.393677 30 0.878906 30Z" fill="#4CAF50"/>
<path d="M10.9995 19.3562C11.5836 20.1314 12.6859 20.2864 13.4611 19.702C14.2366 19.1179 14.3913 18.0156 13.8072 17.2402L8.51775 10.2211C7.93341 9.44562 6.83135 9.29089 6.05613 9.875C5.28068 10.4593 5.12572 11.5614 5.71006 12.3368L10.9995 19.3562Z" fill="#4CAF50"/>
<path d="M23.6346 9.83507C24.2189 10.6103 25.321 10.7652 26.0964 10.1809C26.8716 9.5968 27.0266 8.49473 26.4422 7.71928L21.1528 0.700169C20.5687 -0.0752818 19.4664 -0.230235 18.6912 0.3541C17.9159 0.938435 17.761 2.0405 18.3453 2.81595L23.6346 9.83507Z" fill="#4CAF50"/>
<path d="M19.7789 14.9416C21.078 13.9627 22.0533 12.7471 22.6632 11.4672L16.5086 3.2998C15.1101 3.53349 13.673 4.13568 12.3736 5.11484C11.0745 6.09376 10.0992 7.30935 9.48926 8.58903L15.6439 16.7569C17.0424 16.5232 18.4795 15.9208 19.7789 14.9416Z" fill="#4CAF50"/>
<path d="M22.1527 15.1704C21.7434 15.5874 21.3125 15.9873 20.8373 16.3455C20.3619 16.7035 19.8586 17.0076 19.3452 17.2862L20.4912 18.8071L23.2989 16.6916L22.1527 15.1704Z" fill="#4CAF50"/>
<path d="M24.3565 18.0952L21.5488 20.2108L26.8383 27.2301C27.4226 28.0056 28.5247 28.1603 29.2999 27.5762C30.0754 26.9918 30.2301 25.8898 29.646 25.1143L24.3565 18.0952Z" fill="#4CAF50"/>
</svg>
