<svg width="14" height="16" viewBox="0 0 14 16" fill="none" xmlns="http://www.w3.org/2000/svg">
<path d="M11.9415 3.04297L10.5315 4.45897C11.4765 5.40447 12 6.66197 12 7.99997C12 10.758 9.758 13 7 13V12L5 14L7 16V15C10.8595 15 14 11.8595 14 7.99997C14 6.12697 13.2695 4.36697 11.9415 3.04297Z" fill="#FBFDFB"/>
<path d="M9 2L7 0V1C3.1405 1 0 4.1405 0 8C0 9.873 0.7305 11.633 2.0585 12.957L3.4685 11.541C2.5235 10.5955 2 9.338 2 8C2 5.242 4.242 3 7 3V4L9 2Z" fill="#FBFDFB"/>
</svg>
