<svg width="35" height="35" viewBox="0 0 35 35" fill="none" xmlns="http://www.w3.org/2000/svg">
<rect x="0.5" y="0.5" width="34" height="34" rx="2.5" stroke="#4CAF50"/>
<path d="M17.766 13C15.0598 13 12.2837 14.5663 10.0983 17.699C10.0359 17.7894 10.0017 17.8962 10.0001 18.006C9.9984 18.1159 10.0293 18.2237 10.0889 18.316C11.7681 20.9444 14.507 23 17.766 23C20.9896 23 23.7848 20.9382 25.467 18.3038C25.5253 18.2134 25.5562 18.1081 25.5562 18.0005C25.5562 17.893 25.5253 17.7877 25.467 17.6972C23.7809 15.0931 20.9653 13 17.766 13Z" stroke="#4CAF50" stroke-width="1.2" stroke-linecap="round" stroke-linejoin="round"/>
<path d="M17.7778 20.7778C19.3119 20.7778 20.5556 19.5341 20.5556 18C20.5556 16.4659 19.3119 15.2222 17.7778 15.2222C16.2437 15.2222 15 16.4659 15 18C15 19.5341 16.2437 20.7778 17.7778 20.7778Z" stroke="#4CAF50" stroke-width="1.2" stroke-miterlimit="10"/>
</svg>
