[
  {
    "score": 1,
    "type": "SIG",
    "questionGroupId": null,
    "level": "BGN",
    "content": "<p>1+1=2?</p>",
    "format": "SIG",
    "answers": [
      {
        "questionId": null,
        "content": "<p>cau don d</p>",
        "trueAnswer": 1,
        "position": null,
        "groupOfFillBlank2": null,
        "isShuffler": false
      },
      {
        "questionId": null,
        "content": "<p>cau don s</p>",
        "trueAnswer": 0,
        "position": null,
        "groupOfFillBlank2": null,
        "isShuffler": false
      }
    ],
    "questions": null
  },
  {
    "score": 2,
    "type": "SIG",
    "questionGroupId": null,
    "level": "BGN",
    "content": "<p>1+1=3?</p>",
    "format": "GRO",
    "answers": [
      {
        "questionId": null,
        "content": "<p>cau don d</p>",
        "trueAnswer": 1,
        "position": null,
        "groupOfFillBlank2": null,
        "isShuffler": false
      },
      {
        "questionId": null,
        "content": "<p>cau don s</p>",
        "trueAnswer": 0,
        "position": null,
        "groupOfFillBlank2": null,
        "isShuffler": false
      }
    ],
    "questions": [
      {
        "score": 1,
        "type": "SIG",
        "questionGroupId": null,
        "level": "BGN",
        "content": "<p>1+1=7?</p>",
        "format": "SIG",
        "answers": [
          {
            "questionId": null,
            "content": "<p>cau don d</p>",
            "trueAnswer": 1,
            "position": null,
            "groupOfFillBlank2": null,
            "isShuffler": false
          },
          {
            "questionId": null,
            "content": "<p>cau don s</p>",
            "trueAnswer": 0,
            "position": null,
            "groupOfFillBlank2": null,
            "isShuffler": false
          }
        ],
        "questions": null
      },
      {
        "score": 1,
        "type": "SIG",
        "questionGroupId": null,
        "level": "BGN",
        "content": "<p>1+1=8?</p>",
        "format": "SIG",
        "answers": [
          {
            "questionId": null,
            "content": "<p>cau don d</p>",
            "trueAnswer": 1,
            "position": null,
            "groupOfFillBlank2": null,
            "isShuffler": false
          },
          {
            "questionId": null,
            "content": "<p>cau don s</p>",
            "trueAnswer": 0,
            "position": null,
            "groupOfFillBlank2": null,
            "isShuffler": false
          }
        ],
        "questions": null
      }
    ]
  },
  {
    "score": 1,
    "type": "SIG",
    "questionGroupId": null,
    "level": "BGN",
    "content": "<p>1+1=4?</p>",
    "format": "SIG",
    "answers": [
      {
        "questionId": null,
        "content": "<p>cau don d</p>",
        "trueAnswer": 1,
        "position": null,
        "groupOfFillBlank2": null,
        "isShuffler": false
      },
      {
        "questionId": null,
        "content": "<p>cau don s</p>",
        "trueAnswer": 0,
        "position": null,
        "groupOfFillBlank2": null,
        "isShuffler": false
      }
    ],
    "questions": null
  },
  {
    "score": 1,
    "type": "SIG",
    "questionGroupId": null,
    "level": "BGN",
    "content": "<p>1+1=5?</p>",
    "format": "SIG",
    "answers": [
      {
        "questionId": null,
        "content": "<p>cau don d</p>",
        "trueAnswer": 1,
        "position": null,
        "groupOfFillBlank2": null,
        "isShuffler": false
      },
      {
        "questionId": null,
        "content": "<p>cau don s</p>",
        "trueAnswer": 0,
        "position": null,
        "groupOfFillBlank2": null,
        "isShuffler": false
      }
    ],
    "questions": null
  }
]