[{
    "id": 1,
    "name": "Tài liệu tham khảo tiết 1",
    "fileUrl": "string",
    "lessonId": 1
},
{
    "id": 2,
    "name": "Tài liệu tham khảo tiết 2",
    "fileUrl": "string",
    "lessonId": 1
},
{
    "id": 3,
    "name": "Tài liệu tham khảo tiết 3",
    "fileUrl": "string",
    "lessonId": 1
},
{
    "id": 4,
    "name": "Tài liệu tham khảo tiết 4",
    "fileUrl": "string",
    "lessonId": 1
},
{
    "id": 5,
    "name": "Tài liệu tham khảo tiết 5",
    "fileUrl": "string",
    "lessonId": 1
}
]