<svg width="20" height="20" viewBox="0 0 20 20" fill="none" xmlns="http://www.w3.org/2000/svg">
<path d="M13.6999 14.3468C12.7025 15.1182 11.5273 15.6573 10.2904 15.9031V17.3569H13.0768V18.3334H6.52734V17.3569H9.3138V16.0369C8.02321 16.1369 6.70993 15.9334 5.51338 15.4383C4.35628 14.9595 3.37933 14.1841 2.5 13.3048L3.61133 12.1934C3.82389 12.4405 4.05404 12.672 4.2998 12.8858L3.89225 13.2934C6.72917 15.7791 11.1361 15.6235 13.7998 12.9597C16.4635 10.296 16.6191 5.88908 14.1335 3.05216C14.1335 3.05216 13.8917 3.29403 13.8835 3.30216C13.6706 3.05666 13.4385 2.82743 13.1927 2.61499L14.1449 1.66675C14.263 1.78491 14.3792 1.89689 14.4935 2.01733C15.0544 2.61043 15.5579 3.23804 15.9469 3.96981C17.7913 7.43986 16.8028 11.946 13.6999 14.3468Z" fill="#7E8485"/>
<path d="M8.25057 1.96704L7.13924 5.34041L5.63631 5.61776L4.5647 3.73104C5.51291 2.74438 6.80623 2.09172 8.25057 1.96704Z" fill="#7E8485"/>
<path d="M14.5769 7.76367C14.5769 10.3919 12.8347 12.613 10.4418 13.335L11.0476 9.92057L10.0179 9.05729L10.6329 8.3724L12.3571 8.66895L14.5502 7.20605C14.5678 7.38965 14.5769 7.57585 14.5769 7.76367Z" fill="#7E8485"/>
<path d="M14.3545 6.16268L12.1393 7.64054L10.2669 7.3186L8.61686 9.15649L9.98763 10.3059L9.41276 13.5455C8.40501 13.6598 7.36855 13.5062 6.43912 13.0995L5.68001 9.31502L2.97135 8.37166C2.83141 7.03582 3.16399 5.67007 3.90722 4.55103L5.1302 6.70402L7.88574 6.19588L9.27864 1.96802C11.6489 2.17808 13.7021 3.87573 14.3545 6.16268Z" fill="#7E8485"/>
<path d="M5.31555 12.4477C4.3286 11.7177 3.55618 10.6652 3.20227 9.48511L4.83541 10.0541L5.31555 12.4477Z" fill="#7E8485"/>
</svg>
