<svg width="20" height="20" viewBox="0 0 20 20" fill="none" xmlns="http://www.w3.org/2000/svg">
<path d="M9.99996 4.06744C9.71246 4.06744 9.47913 3.83411 9.47913 3.54661V2.18758C9.47913 1.90008 9.71246 1.66675 9.99996 1.66675C10.2875 1.66675 10.5208 1.90008 10.5208 2.18758V3.54661C10.5208 3.83411 10.2875 4.06744 9.99996 4.06744Z" fill="#7E8485"/>
<path d="M14.5629 5.95764C14.4296 5.95764 14.2962 5.90695 14.1948 5.80487C13.9914 5.60139 13.9914 5.27153 14.1948 5.06806L15.1559 4.10695C15.3594 3.90348 15.6893 3.90348 15.8928 4.10695C16.0962 4.31042 16.0962 4.64028 15.8928 4.84376L14.9316 5.80487C14.8296 5.90626 14.6962 5.95764 14.5629 5.95764Z" fill="#7E8485"/>
<path d="M17.8125 10.5209H16.4535C16.166 10.5209 15.9326 10.2876 15.9326 10.0001C15.9326 9.71258 16.166 9.47925 16.4535 9.47925H17.8125C18.1 9.47925 18.3333 9.71258 18.3333 10.0001C18.3333 10.2876 18.1 10.5209 17.8125 10.5209Z" fill="#7E8485"/>
<path d="M15.524 16.0453C15.3907 16.0453 15.2573 15.9946 15.1559 15.8925L14.1948 14.9314C13.9914 14.7279 13.9914 14.3981 14.1948 14.1946C14.3983 13.9911 14.7282 13.9911 14.9316 14.1946L15.8928 15.1557C16.0962 15.3592 16.0962 15.689 15.8928 15.8925C15.7907 15.9946 15.6573 16.0453 15.524 16.0453Z" fill="#7E8485"/>
<path d="M4.47586 16.0453C4.34253 16.0453 4.20919 15.9946 4.1078 15.8925C3.90433 15.689 3.90433 15.3592 4.1078 15.1557L5.06892 14.1946C5.27239 13.9911 5.60225 13.9911 5.80572 14.1946C6.00919 14.3981 6.00919 14.7279 5.80572 14.9314L4.84461 15.8925C4.74253 15.9946 4.60919 16.0453 4.47586 16.0453Z" fill="#7E8485"/>
<path d="M3.54649 10.5209H2.18746C1.89996 10.5209 1.66663 10.2876 1.66663 10.0001C1.66663 9.71258 1.89996 9.47925 2.18746 9.47925H3.54649C3.83399 9.47925 4.06732 9.71258 4.06732 10.0001C4.06732 10.2876 3.83399 10.5209 3.54649 10.5209Z" fill="#7E8485"/>
<path d="M5.43697 5.95764C5.30364 5.95764 5.1703 5.90695 5.06892 5.80487L4.1078 4.84376C3.90433 4.64028 3.90433 4.31042 4.1078 4.10695C4.31128 3.90348 4.64114 3.90348 4.84461 4.10695L5.80572 5.06806C6.00919 5.27153 6.00919 5.60139 5.80572 5.80487C5.70294 5.90626 5.5703 5.95764 5.43697 5.95764Z" fill="#7E8485"/>
<path d="M12.0833 16.25V17.1181C12.0833 17.7847 11.5347 18.3333 10.868 18.3333H9.1319C8.54857 18.3333 7.91663 17.8889 7.91663 16.9167V16.25H12.0833Z" fill="#7E8485"/>
<path d="M13.0626 6.22227C11.9237 5.29866 10.4237 4.93755 8.9584 5.25005C7.11812 5.632 5.62507 7.132 5.24312 8.97227C4.85423 10.8612 5.56256 12.7362 7.07645 13.882C7.48618 14.1876 7.7709 14.6598 7.86812 15.2084V15.2153C7.88201 15.2084 7.90284 15.2084 7.91673 15.2084H12.0834C12.0973 15.2084 12.1042 15.2084 12.1181 15.2153V15.2084C12.2153 14.6806 12.5278 14.1945 13.007 13.8195C14.1806 12.8889 14.8612 11.5001 14.8612 10.0001C14.8612 8.52783 14.2084 7.15283 13.0626 6.22227ZM12.6042 10.3473C12.3195 10.3473 12.0834 10.1112 12.0834 9.82644C12.0834 8.77088 11.2292 7.91672 10.1737 7.91672C9.88895 7.91672 9.65284 7.68061 9.65284 7.39588C9.65284 7.11116 9.88895 6.87505 10.1737 6.87505C11.7987 6.87505 13.1251 8.20144 13.1251 9.82644C13.1251 10.1112 12.889 10.3473 12.6042 10.3473Z" fill="#7E8485"/>
<path d="M7.8678 15.2085H7.91641C7.90252 15.2085 7.88169 15.2085 7.8678 15.2154V15.2085Z" fill="#7E8485"/>
<path d="M12.118 15.2085V15.2154C12.1041 15.2085 12.0971 15.2085 12.0833 15.2085H12.118Z" fill="#7E8485"/>
</svg>
