<svg width="237" height="184" viewBox="0 0 237 184" fill="none" xmlns="http://www.w3.org/2000/svg">
<path d="M143.488 182.375C143.488 182.375 166.676 170.937 170.663 164.981C174.65 159.012 168.794 158.676 168.794 158.676C168.794 158.676 179.148 148.608 177.691 144.372C176.233 140.136 170.875 144.023 170.875 144.023C170.875 144.023 177.529 129.208 174.389 127.726C168.545 124.947 160.346 140.883 160.346 140.883C160.346 140.883 162.103 133.956 158.079 134.18C152.011 134.516 152.26 150.178 152.26 150.178C152.26 150.178 151.575 144.173 147.911 146.129C141.357 149.643 143.488 182.375 143.488 182.375Z" fill="#355389"/>
<path d="M146.591 143.715C149.444 142.132 152.297 146.768 152.297 146.768C152.297 146.768 152.011 134.532 158.079 134.196C162.103 133.971 160.346 140.899 160.346 140.899C160.346 140.899 168.545 124.963 174.389 127.741L143.463 182.141C143.239 178.328 140.934 146.855 146.591 143.715Z" fill="#466EB6"/>
<path d="M144.086 182.524C144.086 182.524 163.05 184.879 167.959 182.786C172.869 180.692 169.355 178.088 169.355 178.088C169.355 178.088 179.896 176.02 180.718 172.78C181.528 169.541 176.669 169.802 176.669 169.802C176.669 169.802 186.774 163.261 185.428 161.056C182.911 156.956 171.324 163.56 171.324 163.56C171.324 163.56 175.236 159.959 172.632 158.464C168.707 156.209 162.502 166.077 162.502 166.077C162.502 166.077 162.888 163.647 159.811 163.373C154.291 162.887 144.086 182.524 144.086 182.524Z" fill="#355389"/>
<path d="M159.686 161.604C162.764 161.878 162.502 166.077 162.502 166.077C162.502 166.077 168.819 154.377 172.744 156.632C175.348 158.128 172.271 163.037 172.271 163.037C172.271 163.037 182.911 156.956 185.428 161.056L144.036 182.424C145.432 179.957 154.528 161.155 159.686 161.604Z" fill="#466EB6"/>
<path d="M94.5092 181.777C94.5092 181.777 71.3213 170.339 67.3341 164.383C63.347 158.415 69.2031 158.078 69.2031 158.078C69.2031 158.078 58.8489 148.011 60.3067 143.774C61.7645 139.538 67.1971 143.588 67.1971 143.588C67.1971 143.588 60.4687 128.611 63.6086 127.128C69.4523 124.349 77.6509 140.286 77.6509 140.286C77.6509 140.286 75.8941 133.358 79.9186 133.582C85.9866 133.919 85.7374 149.581 85.7374 149.581C85.7374 149.581 86.4227 143.575 90.0859 145.531C96.6398 149.045 94.5092 181.777 94.5092 181.777Z" fill="#355389"/>
<path d="M91.4069 143.114C88.5536 141.532 85.7003 146.167 85.7003 146.167C85.7003 146.167 85.9869 133.931 79.9189 133.595C75.8944 133.371 77.6512 140.298 77.6512 140.298C77.6512 140.298 69.4526 124.362 63.6089 127.141L94.5344 181.541C94.7586 177.728 97.0637 146.254 91.4069 143.114Z" fill="#466EB6"/>
<path d="M93.9115 181.926C93.9115 181.926 74.9475 184.281 70.0383 182.188C65.1291 180.095 68.6428 177.491 68.6428 177.491C68.6428 177.491 58.1017 175.422 57.2794 172.183C56.4695 168.943 61.5033 169.267 61.5033 169.267C61.5033 169.267 51.2239 162.663 52.5695 160.458C55.0864 156.359 66.6741 162.962 66.6741 162.962C66.6741 162.962 62.7617 159.361 65.3658 157.866C69.2907 155.611 75.4957 165.479 75.4957 165.479C75.4957 165.479 75.1095 163.05 78.1871 162.776C83.7068 162.29 93.9115 181.926 93.9115 181.926Z" fill="#355389"/>
<path d="M77.8781 159.474C74.8005 159.748 74.8503 162.738 74.8503 162.738C74.8503 162.738 69.1935 153.78 65.2687 156.035C62.6645 157.53 65.7421 162.439 65.7421 162.439C65.7421 162.439 55.1014 156.359 52.5845 160.458L93.9763 181.827C92.5683 179.36 83.024 159.025 77.8781 159.474Z" fill="#466EB6"/>
<path d="M204.654 126.221C205.227 124.85 205.8 123.467 207.283 122.782C208.479 122.221 209.738 122.433 210.797 123.23C213.812 125.498 211.183 128.002 214.622 132.301C215.693 133.634 216.977 134.718 217.625 136.288C218.522 138.481 217.45 139.528 215.743 140.587C207.57 145.608 203.283 135.291 203.445 132.936C203.557 131.167 204.293 127.105 204.654 126.221Z" fill="#13375B"/>
<path d="M199.732 171.948C200.131 173.767 200.766 175.362 200.853 175.549C200.891 175.636 201.265 175.96 201.314 176.048C201.202 178.29 199.819 179.673 198.511 180.658C198.76 179.524 199.358 178.203 199.271 177.954C199.121 177.555 198.548 175.749 197.365 173.493C198.474 173.356 198.847 172.671 199.732 171.948Z" fill="#F7A491"/>
<path d="M204.778 145.308L211.731 150.591C211.731 150.591 208.292 153.905 206.996 155.138C205.7 156.372 197.726 162.104 197.613 162.39C197.526 162.602 199.433 169.193 200.654 172.719C199.919 173.467 198.299 174.202 197.339 174.451C194.922 169.854 191.969 161.991 191.969 160.932C191.969 159.175 204.778 145.308 204.778 145.308Z" fill="#355389"/>
<path d="M224.29 155.85C224.066 156.074 222.558 159.015 221.973 160.585C221.126 160.049 220.627 159.426 219.68 159.064C220.428 157.993 221.873 155.414 221.985 154.791C222.272 153.333 222.596 153.121 222.596 153.121C222.596 153.121 227.48 154.778 227.804 155.239C228.128 155.7 225.212 154.953 224.29 155.85Z" fill="#F7A491"/>
<path d="M221.948 155.126C221.574 155.126 221.985 153.419 222.072 153.021C222.172 152.572 222.421 152.447 222.496 152.422C222.67 152.385 228.103 154.217 229.025 154.877C229.087 154.927 229.199 155.064 229.212 155.089C229.71 156.023 225.237 156.21 224.589 155.799C224.004 155.438 223.642 155.114 221.948 155.126Z" fill="#4D8F3C"/>
<path d="M203.295 146.866L209.363 144.411C209.339 144.424 209.401 144.66 209.401 144.673C209.974 146.891 213.014 146.031 214.26 149.881C215.145 152.597 216.441 162.777 216.441 162.777C216.441 162.777 217.363 161.033 220.216 157.806C220.44 157.556 223.256 159.488 223.256 159.488C221.163 165.032 216.017 169.543 215.332 169.231C210.634 167.076 204.978 150.055 204.99 150.055C204.467 149.021 203.295 146.866 203.295 146.866Z" fill="#466EB6"/>
<path d="M203.072 128.949C203.072 128.949 200.218 124.439 199.732 122.943C199.234 121.448 199.732 114.296 199.77 113.785C199.82 113.274 201.539 111.891 201.265 111.493C200.991 111.094 198.623 110.77 198.225 110.845C197.826 110.92 197.054 110.857 196.73 111.169C196.692 111.206 197.49 113.088 197.465 113.387C197.353 115.38 196.219 121.71 196.592 123.429C197.016 125.398 201.253 131.703 201.253 131.703L203.072 128.949Z" fill="#F7A491"/>
<path d="M213.413 131.578C213.413 131.578 221.026 131.765 222.708 131.902C224.377 132.039 230.445 131.528 230.682 131.503C230.919 131.478 232.476 128.837 232.726 129.123C232.987 129.41 231.866 130.432 232.202 130.693C232.551 130.955 236.289 130.369 236.239 130.643C236.152 131.154 233.972 131.092 233.972 131.341C233.972 131.59 236.252 131.204 236.401 131.615C236.551 132.026 234.208 131.79 234.121 131.964C234.021 132.151 236.302 132.487 236.065 132.874C235.94 133.086 234.059 132.525 234.059 132.811C234.071 133.098 235.442 133.746 235.28 133.97C235.118 134.194 234.196 133.272 233.398 133.26C232.601 133.248 232.028 132.836 230.757 133.185C229.486 133.534 225.15 135.278 222.434 135.154C219.717 135.029 213.712 134.755 213.712 134.755L213.413 131.578Z" fill="#F7A491"/>
<path d="M202.224 139.526C202.124 138.268 201.95 134.879 202 134.468C201.614 133.159 200.23 131.228 199.944 130.68C199.944 130.68 201.825 128.549 203.221 128.562C203.221 128.562 204.704 130.431 205.813 131.016C205.825 131.016 206.199 131.178 206.361 131.178C207.42 131.166 211.145 131.054 211.831 131.265L211.432 137.009C211.233 137.333 210.996 143.937 210.572 144.485C210.161 145.034 204.18 147.501 203.183 146.865C203.171 146.84 202.436 142.068 202.224 139.526Z" fill="#4CAF50"/>
<path d="M209.9 131.403C210.585 131.079 215.594 131.092 215.594 131.092C215.594 131.092 216.291 134.543 215.731 135.378C215.731 135.378 211.295 136.038 211.42 136.4L209.9 131.403Z" fill="#4CAF50"/>
<path d="M208.79 129.061C208.79 129.061 208.404 131.054 208.479 131.839C208.554 132.624 208.18 135.153 206.523 135.166C204.866 135.178 206.211 131.951 206.361 131.179C206.523 130.406 206.56 128.026 206.56 128.026L208.79 129.061Z" fill="#F7A491"/>
<path d="M206.523 129.223C206.548 128.575 206.56 128.026 206.56 128.026L208.791 129.061C208.791 129.061 208.716 129.472 208.629 129.983C207.657 130.194 206.947 129.833 206.523 129.223Z" fill="#F47458"/>
<path d="M209.601 123.566C209.601 123.566 210.46 124.039 210.772 125.073C211.083 126.108 210.734 128.774 208.504 129.422C206.274 130.07 205.327 127.952 205.775 126.307C206.224 124.662 207.246 122.557 209.601 123.566Z" fill="#F7A491"/>
<path d="M205.513 125.658C205.551 126.107 205.8 126.443 206.062 126.418C206.323 126.393 206.498 126.007 206.448 125.571C206.398 125.135 206.161 124.786 205.9 124.811C205.638 124.836 205.464 125.222 205.513 125.658Z" fill="#F7A491"/>
<path d="M200.879 175.611C201.003 175.25 202.461 176.321 202.797 176.545C203.184 176.795 203.221 177.081 203.209 177.143C203.196 177.318 199.745 181.878 198.711 182.526C198.611 182.588 198.399 182.601 198.337 182.576C197.739 182.377 198.573 178.713 199.309 177.966C199.807 177.48 200.305 177.218 200.879 175.611Z" fill="#4D8F3C"/>
<path d="M213.525 107.492L207.407 109.673C207.096 109.785 206.859 110.047 206.772 110.358L205.102 116.65C204.89 117.46 203.844 117.66 203.333 116.999L199.371 111.828C199.171 111.567 198.847 111.417 198.523 111.43L192.044 111.766C191.209 111.804 190.686 110.882 191.16 110.184L194.823 104.814C195.01 104.539 195.047 104.191 194.935 103.879L192.605 97.7986C192.306 97.0136 193.029 96.2287 193.826 96.4654L200.056 98.3095C200.367 98.4092 200.716 98.3344 200.978 98.1226L206.024 94.0233C206.672 93.5 207.644 93.9485 207.657 94.7833L207.831 101.287C207.843 101.624 208.005 101.923 208.292 102.11L213.737 105.661C214.435 106.147 214.31 107.206 213.525 107.492Z" fill="#FFC45B"/>
<path d="M201.227 111.554C201.451 111.89 200.218 112.949 199.882 113.535L199.109 112.476C199.483 112.414 200.966 111.18 201.227 111.554Z" fill="#F7A491"/>
<path d="M209.339 123.429C209.339 123.429 209.737 126.407 210.709 126.942C211.681 127.478 211.27 128.799 211.27 128.799C211.27 128.799 212.142 125.734 211.382 124.749C210.622 123.765 209.339 123.429 209.339 123.429Z" fill="#13375B"/>
<path d="M210.136 127.366C209.874 127.752 209.874 128.213 210.136 128.388C210.398 128.562 210.821 128.388 211.083 128.002C211.345 127.615 211.345 127.154 211.083 126.98C210.821 126.805 210.398 126.98 210.136 127.366Z" fill="#F7A491"/>
<path d="M199.358 111.804C199.358 111.816 199.371 111.816 199.371 111.829L199.657 112.19C199.445 112.128 199.059 112.028 198.673 112.29C198.673 112.29 198.797 112.016 199.358 111.804Z" fill="#F47257"/>
<path d="M32.196 144.86C32.2708 144.898 31.1992 146.268 30.165 147.24C29.3302 148.287 28.5452 149.533 28.2711 150.891C27.8599 152.947 28.1964 163.139 27.8475 163.862C24.7699 166.865 22.552 174.403 21.929 176.695C21.8044 177.144 21.5552 177.543 21.2188 177.867L21.3559 180.471L22.876 181.879C22.876 181.879 22.5396 179.761 23.2124 178.191C23.2124 178.191 30.95 166.478 31.411 165.581C32.2832 163.027 35.4854 149.969 35.4854 149.969L36.233 146.966C36.233 146.954 32.2085 144.86 32.196 144.86Z" fill="#F7A491"/>
<path d="M19.5491 178.701C19.5491 178.701 20.5209 180.184 20.5957 180.769C20.6829 181.355 21.1938 182.663 21.7669 182.751C21.8915 182.775 24.1094 182.937 24.0969 182.651C24.0845 182.439 23.287 182.14 22.9132 181.878C22.2653 181.43 21.2685 177.816 21.2685 177.816C21.2685 177.816 19.5865 178.24 19.5491 178.701Z" fill="#F47458"/>
<path d="M38.8126 149.369C38.8126 149.369 43.7965 160.022 43.8214 161.891C43.8464 163.499 42.9492 172.507 43.1984 180.008C43.2109 180.282 43.5473 180.644 44.0457 180.868C44.3323 180.993 45.678 181.603 45.678 181.603L45.8649 182.089L41.1924 181.753L41.1301 180.482C41.1301 180.482 39.2736 169.268 39.4605 166.09C39.4854 165.592 39.7346 162.602 39.7346 162.602L34.1152 151.749L37.6538 147.102L38.8126 149.369Z" fill="#F7A491"/>
<path d="M39.2738 125.473C38.5137 123.467 36.545 122.246 34.4892 122.62C33.8537 121.598 32.8071 120.85 31.6608 120.601C29.4055 120.115 26.3528 121.012 26.4401 123.392C25.5679 124.999 25.5305 127.292 26.8762 128.513C26.4151 130.669 28.4336 132.75 31.0502 132.675C31.9598 134.182 33.7042 135.154 35.4361 134.942C35.8473 134.893 36.4827 134.793 36.5949 134.818C36.4578 134.793 39.3734 137.023 41.853 133.597C44.3823 130.083 42.613 125.847 39.2738 125.473Z" fill="#355389"/>
<path d="M38.9871 113.411C39.1117 113.124 39.2612 112.85 39.4356 112.588L39.635 112.302C39.6599 112.252 39.6724 112.215 39.6848 112.177C39.7721 111.928 39.7098 111.118 39.7098 111.118L38.0027 111.529L37.629 112.514C37.2552 112.339 36.6072 111.018 36.3705 111.342C36.0964 111.716 37.143 113.336 37.2302 113.772C37.3175 114.208 36.3207 121.024 36.0341 122.382C35.7475 123.74 33.8162 127.515 33.8162 127.515L35.5855 129.758C35.5855 129.758 38.4139 124.002 38.6008 122.245C38.6257 122.058 38.6382 121.784 38.6631 121.435L38.9871 113.411Z" fill="#F7A491"/>
<path d="M27.2373 134.743L25.1441 132.961C25.1441 132.961 23.4495 135.789 22.0914 138.094C20.7457 137.608 17.2569 135.341 17.095 135.229C16.9205 135.129 16.5467 132.562 16.2477 132.699C15.9487 132.836 16.472 134.057 16.1106 134.145C15.7493 134.232 13.0704 132.45 13.0206 132.687C12.9209 133.135 14.6154 133.845 14.5407 134.045C14.4535 134.244 12.8337 133.135 12.572 133.409C12.3104 133.684 14.2043 134.319 14.2167 134.493C14.2292 134.68 12.3602 134.145 12.41 134.543C12.435 134.755 14.0797 134.967 13.98 135.191C13.8803 135.415 12.5969 135.453 12.6468 135.702C12.6966 135.939 13.7183 135.528 14.3289 135.789C14.9519 136.063 15.525 135.926 16.3972 136.661C17.2569 137.384 21.5058 141.546 22.8265 141.197C23.9728 140.885 27.2373 134.743 27.2373 134.743Z" fill="#F7A491"/>
<path d="M34.5138 132.1C34.6508 131.278 35.9093 129.234 36.1211 128.723C36.1211 128.723 34.6508 126.855 33.4547 126.992C33.4547 126.992 31.8473 129.646 30.9378 129.733C30.0282 129.82 26.826 129.957 26.2653 130.306C25.7046 130.642 23.3248 134.306 23.3248 134.306C23.3248 134.306 25.4679 136.498 26.3276 136.486C26.3276 136.486 26.7886 135.589 26.9631 135.39C27.0877 135.813 29.0937 142.28 29.0812 143.738L29.0937 143.75C30.9627 145.258 33.679 144.909 35.1243 142.978C35.1243 142.978 34.9499 140.959 35.0495 139.103C35.2115 136.212 35.7971 134.667 34.5138 132.1Z" fill="#F47458"/>
<path d="M44.9055 157.121L35.1245 142.991C34.5264 143.24 33.9533 143.452 33.3054 143.577C31.8974 143.851 30.5019 143.801 29.0815 143.764C29.0815 143.814 29.0815 143.863 29.069 143.901C28.907 145.06 27.362 146.866 27.038 150.405C26.6767 154.417 26.901 161.382 27.0131 161.843C33.5296 161.046 43.0615 159.064 44.9055 157.121Z" fill="#466EB6"/>
<path d="M39.2112 112.352C39.2112 112.352 38.6006 112.763 38.0773 112.626C37.554 112.489 37.3173 112.302 37.3173 112.302C37.3173 112.302 37.6038 112.825 38.0275 113.062C38.7626 113.448 39.2112 112.352 39.2112 112.352Z" fill="#F47458"/>
<path d="M27.088 109.436L32.7697 108.265C33.0563 108.203 33.3553 108.302 33.5671 108.514L37.7287 112.738C38.2645 113.286 39.1616 112.95 39.2488 112.177L39.9217 106.172C39.9591 105.86 40.1335 105.598 40.3952 105.449L45.5162 102.633C46.1766 102.272 46.1516 101.275 45.4788 100.951L40.2083 98.4091C39.9341 98.2845 39.7472 98.0228 39.6974 97.7113L38.7131 91.7431C38.5885 90.983 37.6789 90.6964 37.168 91.2696L33.2307 95.7053C33.0314 95.9296 32.7323 96.0417 32.4457 95.9919L26.7142 95.1197C25.9791 95.0075 25.4433 95.8299 25.8046 96.5027L28.6455 101.786C28.795 102.06 28.795 102.384 28.6704 102.658L26.1161 108.078C25.7797 108.788 26.3529 109.586 27.088 109.436Z" fill="#FFC45B"/>
<path d="M29.2932 127.404C29.2932 127.404 29.6421 129.26 29.5673 129.983C29.4926 130.718 29.829 133.073 31.3117 133.073C32.7944 133.085 31.5983 130.082 31.4488 129.36C31.3117 128.65 31.2743 126.432 31.2743 126.432L29.2932 127.404Z" fill="#F7A491"/>
<path d="M31.3117 127.553C31.2868 126.943 31.2868 126.444 31.2868 126.444L29.2932 127.416C29.2932 127.416 29.368 127.79 29.4303 128.276C30.3025 128.45 30.9379 128.114 31.3117 127.553Z" fill="#F47458"/>
<path d="M28.5703 122.296C28.5703 122.296 27.7978 122.744 27.5237 123.704C27.2371 124.663 27.561 127.143 29.5422 127.741C31.5233 128.339 32.383 126.37 31.9718 124.838C31.5607 123.293 30.676 121.361 28.5703 122.296Z" fill="#F7A491"/>
<path d="M32.2213 124.239C32.1839 124.65 31.9596 124.961 31.7353 124.936C31.4986 124.911 31.3491 124.562 31.3864 124.151C31.4238 123.74 31.6481 123.429 31.8724 123.454C32.1091 123.466 32.2586 123.827 32.2213 124.239Z" fill="#F7A491"/>
<path d="M28.0845 125.821C28.3213 126.183 28.3213 126.606 28.0845 126.768C27.8478 126.93 27.474 126.768 27.2372 126.407C27.0005 126.045 27.0005 125.622 27.2372 125.46C27.474 125.31 27.8602 125.46 28.0845 125.821Z" fill="#F7A491"/>
<path d="M39.4979 110.084C39.1116 110.009 37.4918 111.293 37.5043 111.48C37.5167 111.679 39.1116 110.857 39.149 110.994C39.1864 111.093 37.3672 111.567 37.4669 111.754C37.5292 111.878 39.1615 111.53 39.1988 111.617C39.2611 111.741 37.8407 111.791 37.9404 111.928C38.0525 112.09 39.3982 112.028 39.3982 112.028C39.3982 112.028 39.6723 111.592 39.6972 111.43C39.7097 111.355 39.7097 111.255 39.7097 111.143C39.7097 111.056 39.7471 110.969 39.7346 110.869C39.6723 110.458 39.7097 110.122 39.4979 110.084Z" fill="#F7A491"/>
<path d="M37.3295 111.056L36.7189 111.803L36.3202 111.504C36.3202 111.504 36.2828 111.442 36.3327 111.342C36.3825 111.243 37.317 110.781 37.3295 111.056Z" fill="#F7A491"/>
<path d="M41.1927 182.65H47.0987C47.323 182.625 47.3728 182.451 47.2981 182.351C47.1361 182.127 46.4508 181.965 45.6783 181.603C44.3202 181.74 41.3672 180.818 41.1553 180.507C41.0183 181.117 41.0681 182.613 41.1927 182.65Z" fill="#F47458"/>
<path d="M36.7688 111.754C36.7688 111.754 37.5662 112.24 37.9026 112.813C38.239 113.386 38.0771 113.86 38.0771 113.86L36.7065 112.165L36.7688 111.754Z" fill="#F7A491"/>
<path d="M154.067 44.9941C153.93 45.667 153.793 46.3523 153.444 46.913C152.846 47.6356 152.285 48.3832 151.737 49.1558C152.111 49.1308 152.485 49.1184 152.858 49.1184C156.559 49.1184 159.998 50.4142 162.54 52.7816C164.82 54.8998 166.078 57.6036 166.078 60.407C166.078 63.2105 164.82 65.9143 162.54 68.0325C159.985 70.3999 156.547 71.6957 152.858 71.6957C149.17 71.6957 145.744 70.3999 143.189 68.045C143.003 68.5932 142.816 69.1414 142.629 69.6897C141.383 70.3251 140.511 71.8079 140.511 73.5398C140.511 75.8449 142.056 77.7138 143.974 77.7138C145.482 77.7138 146.753 76.5551 147.227 74.9353C148.983 75.5209 150.877 75.8449 152.858 75.8449C162.066 75.8449 169.517 68.9296 169.517 60.3946C169.53 52.2458 162.702 45.5673 154.067 44.9941Z" fill="#E0973F"/>
<path d="M79.3449 44.9941C79.4819 45.667 79.619 46.3523 79.9679 46.913C80.566 47.6356 81.1267 48.3832 81.6749 49.1558C81.3011 49.1308 80.9273 49.1184 80.5535 49.1184C76.8529 49.1184 73.414 50.4142 70.8722 52.7816C68.592 54.8998 67.3335 57.6036 67.3335 60.407C67.3335 63.2105 68.592 65.9143 70.8722 68.0325C73.4264 70.3999 76.8654 71.6957 80.5535 71.6957C84.2416 71.6957 87.6681 70.3999 90.2224 68.045C90.4093 68.5932 90.5962 69.1414 90.7831 69.6897C92.0291 70.3251 92.9013 71.8079 92.9013 73.5398C92.9013 75.8449 91.3562 77.7138 89.4374 77.7138C87.9298 77.7138 86.6589 76.5551 86.1854 74.9353C84.4285 75.5209 82.5346 75.8449 80.5535 75.8449C71.3456 75.8449 63.8946 68.9296 63.8946 60.3946C63.8821 52.2458 70.7102 45.5673 79.3449 44.9941Z" fill="#E0973F"/>
<path d="M156.459 43.2363V47.4976C156.459 66.7731 140.834 82.4103 121.546 82.4103C112.662 82.2981 106.569 83.2077 98.1466 79.4822C86.0106 74.1493 77.2638 61.9386 77.2638 47.4976V43.2363H156.459Z" fill="#FFC45B"/>
<path d="M98.1596 79.4695C98.1721 79.4695 98.1721 79.482 98.1845 79.482L110.732 43.2236H97.6737L87.6185 72.2926C90.6463 75.3079 94.2223 77.75 98.1596 79.4695Z" fill="#FAE0B2"/>
<path d="M106.32 81.9243L119.565 43.2363H112.999L100.302 80.3419C102.408 81.1144 104.377 81.6128 106.32 81.9243Z" fill="#FAE0B2"/>
<path d="M86.3348 70.9721L96.2404 43.2363H93.1255L84.1668 68.3306C84.8396 69.2401 85.5748 70.1248 86.3348 70.9721Z" fill="#FAE0B2"/>
<path d="M153.008 40.8193H80.9275C78.2984 40.8193 76.1553 42.2896 76.0058 44.1337H157.942C157.78 42.2771 155.637 40.8193 153.008 40.8193Z" fill="#FFC45B"/>
<path d="M103.48 81.3887L107.554 102.321H125.397L130.443 81.3887H103.48Z" fill="#FFC45B"/>
<path d="M130.456 81.3887L129.309 86.111H104.402L103.48 81.3887H130.456Z" fill="#B75742"/>
<path d="M130.456 128.225H103.48L105.498 117.834L107.554 107.28H125.397L127.939 117.834L130.456 128.225Z" fill="#FFC45B"/>
<path d="M130.456 128.226H103.48L105.498 117.834H127.939L130.456 128.226Z" fill="#B75742"/>
<path d="M128.524 102.321H104.427C103.368 102.321 102.508 103.181 102.508 104.24V105.349C102.508 106.408 103.368 107.268 104.427 107.268H128.524C129.583 107.268 130.443 106.408 130.443 105.349V104.24C130.443 103.181 129.583 102.321 128.524 102.321Z" fill="#FAE0B2"/>
<path d="M132.437 126.805H100.589V121.086C100.589 120.476 101.088 119.965 101.711 119.965H131.328C131.938 119.965 132.449 120.463 132.449 121.086V126.805H132.437Z" fill="#FFC45B"/>
<path d="M142.966 130.893V132.973H90.0608V130.893C90.0608 128.5 91.5186 126.557 93.3253 126.557H139.701C141.495 126.557 142.966 128.5 142.966 130.893Z" fill="#FFC45B"/>
<path d="M102.508 126.557L100.838 132.973H98.633L100.303 126.557H102.508Z" fill="#FAE0B2"/>
<path d="M99.3563 126.557L97.6742 132.973H95.4688L97.1509 126.557H99.3563Z" fill="#FAE0B2"/>
<path d="M105.324 126.557L103.655 132.973H101.437L103.119 126.557H105.324Z" fill="#FAE0B2"/>
<path d="M162.664 180.496V182.577H74.0119V180.496C74.0119 178.104 76.4665 176.16 79.4818 176.16H157.194C160.21 176.148 162.664 178.092 162.664 180.496Z" fill="#FFC45B"/>
<path d="M94.8825 176.146L92.079 182.576H88.3784L91.1819 176.146H94.8825Z" fill="#FAE0B2"/>
<path d="M89.5871 176.146L86.7836 182.576H83.0706L85.8865 176.146H89.5871Z" fill="#FAE0B2"/>
<path d="M99.5922 176.146L96.7887 182.576H93.0757L95.8916 176.146H99.5922Z" fill="#FAE0B2"/>
<path d="M139.551 77.4258V78.9957C139.551 81.712 137.346 83.9174 134.642 83.9174H99.1312C96.4149 83.9174 94.2095 81.712 94.2095 78.9957V77.4258H139.551Z" fill="#FFC45B"/>
<path d="M150.366 176.146H83.6434L84.4658 132.973H149.469L150.366 176.146Z" fill="#4D8F3C"/>
<path d="M134.492 176.146H99.5174L99.941 132.973H134.031L134.492 176.146Z" fill="#4CAF50"/>
<path d="M222.434 183.572C222.708 183.572 222.933 183.348 222.933 183.074C222.933 182.799 222.708 182.575 222.434 182.575H0.498396C0.224278 182.575 0 182.799 0 183.074C0 183.348 0.224278 183.572 0.498396 183.572" fill="#184655"/>
<path d="M127.739 174.851L122.444 166.216L114.669 172.707L122.668 123.989L135.739 126.145L127.739 174.851Z" fill="#B75742"/>
<path d="M151.898 172.683L144.111 166.203L138.84 174.851L130.729 126.17L143.787 123.989L151.898 172.683Z" fill="#B75742"/>
<path d="M162.664 135.202C162.664 138.018 160.184 140.398 159.362 142.94C158.502 145.569 159.088 148.958 157.493 151.151C155.886 153.369 152.472 153.855 150.266 155.462C148.073 157.057 146.566 160.16 143.937 161.007C141.395 161.829 138.367 160.247 135.551 160.247C132.735 160.247 129.708 161.842 127.166 161.007C124.537 160.147 123.017 157.057 120.836 155.462C118.618 153.855 115.217 153.357 113.609 151.151C112.014 148.958 112.588 145.582 111.74 142.94C110.918 140.398 108.438 138.018 108.438 135.202C108.438 132.387 110.918 130.007 111.74 127.465C112.6 124.836 112.014 121.447 113.609 119.254C115.217 117.036 118.631 116.55 120.836 114.943C123.029 113.348 124.537 110.245 127.166 109.398C129.708 108.576 132.735 110.158 135.551 110.158C138.367 110.158 141.395 108.563 143.937 109.398C146.566 110.258 148.086 113.348 150.266 114.943C152.484 116.55 155.886 117.048 157.493 119.254C159.088 121.447 158.515 124.823 159.362 127.465C160.184 130.007 162.664 132.387 162.664 135.202Z" fill="#F47458"/>
<path d="M142.292 159.275C141.445 159.275 140.448 159.051 139.401 158.827C138.155 158.553 136.884 158.279 135.539 158.279C134.193 158.279 132.91 158.565 131.676 158.827C130.63 159.064 129.633 159.275 128.786 159.275C128.399 159.275 128.063 159.226 127.764 159.138C126.68 158.789 125.708 157.681 124.674 156.509C123.864 155.587 123.017 154.628 121.982 153.868C120.936 153.108 119.752 152.584 118.606 152.099C117.185 151.476 115.84 150.902 115.179 149.993C114.531 149.108 114.394 147.65 114.245 146.118C114.12 144.872 113.996 143.588 113.597 142.342C113.211 141.146 112.563 140.062 111.94 139.016C111.142 137.67 110.382 136.387 110.382 135.215C110.382 134.044 111.142 132.761 111.94 131.415C112.563 130.368 113.198 129.284 113.597 128.088C114.008 126.842 114.133 125.559 114.245 124.313C114.394 122.78 114.544 121.323 115.179 120.438C115.84 119.528 117.185 118.955 118.606 118.332C119.752 117.834 120.936 117.323 121.982 116.563C123.017 115.803 123.864 114.856 124.674 113.921C125.708 112.75 126.68 111.641 127.764 111.292C128.05 111.193 128.387 111.155 128.786 111.155C129.633 111.155 130.63 111.367 131.676 111.604C132.922 111.878 134.206 112.152 135.539 112.152C136.884 112.152 138.168 111.865 139.401 111.604C140.448 111.367 141.445 111.155 142.292 111.155C142.678 111.155 143.015 111.205 143.314 111.292C144.398 111.641 145.37 112.75 146.404 113.921C147.214 114.843 148.061 115.803 149.095 116.563C150.142 117.323 151.326 117.846 152.472 118.332C153.892 118.955 155.238 119.528 155.898 120.438C156.546 121.323 156.683 122.78 156.833 124.313C156.957 125.559 157.082 126.842 157.481 128.088C157.867 129.284 158.515 130.368 159.138 131.415C159.935 132.761 160.695 134.044 160.695 135.215C160.695 136.399 159.935 137.67 159.138 139.016C158.515 140.062 157.879 141.146 157.481 142.342C157.07 143.588 156.945 144.872 156.833 146.118C156.683 147.65 156.534 149.108 155.898 149.993C155.238 150.902 153.892 151.476 152.472 152.099C151.326 152.597 150.142 153.108 149.095 153.868C148.061 154.628 147.214 155.575 146.404 156.509C145.37 157.681 144.398 158.789 143.314 159.138C143.015 159.238 142.691 159.275 142.292 159.275Z" fill="#FFC45B"/>
<path d="M155.113 137.936C156.625 127.127 149.087 117.139 138.278 115.628C127.469 114.116 117.481 121.653 115.97 132.462C114.458 143.272 121.995 153.26 132.804 154.771C143.614 156.283 153.602 148.746 155.113 137.936Z" fill="#F47458"/>
<path d="M135.539 153.98C145.909 153.98 154.316 145.573 154.316 135.203C154.316 124.833 145.909 116.426 135.539 116.426C125.169 116.426 116.762 124.833 116.762 135.203C116.762 145.573 125.169 153.98 135.539 153.98Z" fill="white"/>
<path d="M152.461 136.885C153.386 127.531 146.553 119.198 137.199 118.272C127.845 117.347 119.512 124.18 118.587 133.534C117.662 142.888 124.494 151.221 133.848 152.146C143.202 153.071 151.535 146.238 152.461 136.885Z" fill="#FFC45B"/>
<path d="M126.344 142.395L126.979 137.623H124.986V136.19H127.203L127.664 132.651H125.559V131.219H127.876L128.512 126.559H129.92L129.309 131.219H131.839L132.474 126.559H133.907L133.296 131.219H135.29V132.651H133.072L132.636 136.19H134.729V137.623H132.412L131.776 142.395H130.318L130.954 137.623H128.425L127.789 142.395H126.344ZM131.191 136.178L131.652 132.639H129.122L128.661 136.178H131.191Z" fill="white"/>
<path d="M141.943 128.549H141.894L139.14 130.032L138.729 128.399L142.193 126.543H144.024V142.38H141.956V128.549H141.943Z" fill="white"/>
<path d="M155.312 15.2765C155.125 16.0366 154.789 17.2452 154.789 17.2452C154.814 17.5816 154.913 18.9647 155.026 20.6467L152.534 19.6499C152.534 19.6499 152.559 16.8963 152.446 16.7219C152.347 16.5848 152.197 16.7592 151.437 15.6628C151.213 15.3513 151.176 14.7906 151.176 14.7906C151.176 14.7906 151.126 14.0928 151.288 14.0305C151.437 13.9682 151.624 14.0679 151.674 14.1925C151.736 14.3171 151.711 14.5912 151.774 14.7158C151.836 14.8404 152.185 14.9775 152.347 14.9775C152.496 14.965 152.322 12.9341 152.322 12.9341C152.322 12.9341 152.235 12.3609 152.197 12.1615C152.16 11.9996 152.01 11.5261 152.01 11.5261C152.01 11.5261 151.836 10.8408 152.048 10.791C152.172 10.766 152.496 11.3143 152.708 11.9123C152.945 12.5478 153.082 13.2331 153.144 13.2206C153.306 13.1957 153.219 12.0743 153.219 12.0743C153.219 12.0743 153.057 11.5635 153.069 11.3143C152.92 11.0152 152.82 10.467 153.082 10.4172C153.132 10.4047 153.481 11.1025 153.481 11.1025C153.481 11.1025 153.618 11.5884 153.692 11.8251C153.829 12.2363 153.854 12.8718 153.929 13.1583C153.991 13.3951 154.041 13.2954 154.066 13.3079C154.091 13.3203 154.054 12.9964 154.016 12.5478C153.991 12.3235 154.029 12.0619 153.954 11.8127C153.892 11.5759 153.867 11.2395 153.842 11.0277C153.805 10.4545 154.166 10.5044 154.29 11.0402C154.34 11.2395 154.39 11.4638 154.44 11.6881C154.639 12.5603 154.627 13.3951 154.727 13.3951C154.851 13.4075 154.764 11.8874 154.764 11.8874C154.764 11.8874 154.951 11.0402 155.138 11.8251C155.35 12.7347 155.325 13.4698 155.325 13.5072C155.337 13.7315 155.487 14.5165 155.312 15.2765Z" fill="#F8A492"/>
<path d="M155.15 18.6154C155.15 18.6154 152.347 17.9426 152.322 18.1669C151.736 23.101 151.462 24.8828 151.362 24.9326C151.026 25.107 146.516 20.9828 145.718 20.7087C145.332 20.5716 144.921 20.5965 144.509 20.609C143.55 20.6339 143.363 20.6464 143.363 20.6464C143.338 20.6464 143.326 20.6464 143.326 20.6464V21.5435C144.397 22.5154 146.864 37.1807 147.076 37.1682C147.313 37.1558 152.185 38.3893 152.098 37.9781C152.085 37.9158 148.796 35.2245 147.861 31.337C147.55 30.0287 147.388 28.6332 147.226 27.3997C148.31 27.9479 152.534 30.0162 153.207 29.7421C155.287 28.8948 155.15 18.6154 155.15 18.6154Z" fill="#4D8F3C"/>
<path d="M163.536 44.6701C163.536 44.6701 168.071 48.2211 168.221 48.8441C168.433 49.7537 172.594 48.5576 171.585 48.3707C171.361 48.3333 170.613 48.1464 170.563 48.109C170.239 47.9346 166.202 43.0752 166.202 43.0752L163.536 44.6701Z" fill="#F7A491"/>
<path d="M173.529 48.3705L170.638 48.1338C170.638 48.1338 169.816 48.8191 168.221 48.8565C168.221 48.8565 167.971 49.5791 168.084 50.4264C168.109 50.5759 168.133 51.012 168.271 50.9996C168.806 50.9622 170.227 50.6133 171.847 50.2894C171.847 50.2894 174.027 49.8283 175.285 49.0683C176.556 48.3207 173.529 48.3705 173.529 48.3705Z" fill="#B75742"/>
<path d="M143.226 35.7603C143.226 35.7603 146.54 36.321 150.216 35.4613C154.465 34.4645 159.162 33.5549 160.533 34.3524C161.642 35.0003 168.557 45.4417 168.557 45.4417L165.891 47.3854L158.278 38.8628C158.278 38.8628 148.559 42.4513 146.378 42.0526C141.407 41.143 141.332 37.1808 143.226 35.7603Z" fill="#13375B"/>
<path d="M146.852 33.6553L150.179 37.5926L144.011 39.4741L143.226 35.761L146.852 33.6553Z" fill="#13375B"/>
<path d="M153.605 51.6709C153.605 51.6709 153.406 57.1533 153.281 58.0753C153.156 58.9973 155.611 61.7883 155.3 60.8165C155.225 60.5922 155.038 59.8571 155.038 59.7823C155.038 59.421 155.947 53.1661 155.947 53.1661L153.605 51.6709Z" fill="#F7A491"/>
<path d="M156.857 62.8239L155.05 59.8833C155.05 59.8833 154.054 59.4846 153.269 58.1016C153.269 58.1016 152.509 58.2262 151.823 58.737C151.699 58.8242 150.889 59.4223 150.951 59.5594C151.163 60.0578 152.259 61.1418 153.468 62.313C153.468 62.313 155.175 63.6961 156.446 64.4436C157.692 65.1788 156.857 62.8239 156.857 62.8239Z" fill="#B75742"/>
<path d="M158.988 40.8687C157.829 39.3236 148.459 37.8534 148.459 37.8534L145.843 32.832L140.074 36.3956C140.074 36.3956 140.647 40.9933 141.083 42.2143C141.656 43.8466 145.544 43.9338 147.911 43.9089C150.092 43.884 154.079 44.3325 154.079 44.3325L152.733 56.2193C152.733 56.2193 155.387 56.8174 156.122 56.7301C156.209 56.7177 160.421 42.8 158.988 40.8687Z" fill="#355389"/>
<path d="M143.363 20.6592L140.111 20.8461C140.111 20.8461 140.036 20.871 140.011 20.871C139.75 20.9208 139.986 30.4153 140.223 33.9664C140.46 37.5174 140.946 39.0002 140.946 39.0002C140.946 39.0002 145.369 38.2152 146.715 37.6919C147.276 37.4676 148.634 35.773 148.634 35.773C148.634 35.773 147.238 33.9041 146.54 30.8638C146.005 28.5214 145.332 24.3598 144.946 23.5C144.073 21.494 143.363 20.6592 143.363 20.6592Z" fill="#9BC1F9"/>
<path d="M140.199 17.9682L140.111 20.8465C140.111 20.8465 142.217 24.4847 143.301 23.9739C144.211 23.5503 143.401 20.7842 143.401 20.7842C143.401 20.7842 143.239 20.1487 143.027 19.426C142.877 18.9152 142.753 18.3669 142.753 17.9558C142.778 16.9714 140.199 17.9682 140.199 17.9682Z" fill="#F7A491"/>
<path d="M142.753 17.9558C142.778 16.9714 140.198 17.9682 140.198 17.9682L140.186 18.2548C140.273 18.3919 140.373 18.4915 140.473 18.5788C141.17 19.1394 142.167 19.4011 142.989 19.3014C142.852 18.8279 142.74 18.3296 142.753 17.9558Z" fill="#F47458"/>
<path d="M142.716 11.4004C142.716 11.4004 143.787 13.0202 143.874 14.3783C143.949 15.7364 143.663 16.6709 143.663 16.6709L140.211 12.5467L142.716 11.4004Z" fill="#184655"/>
<path d="M144.236 14.1051C144.286 14.5785 144.099 14.9897 143.825 15.0146C143.551 15.0395 143.289 14.6782 143.239 14.2047C143.189 13.7313 143.376 13.3201 143.65 13.2952C143.912 13.2702 144.186 13.6316 144.236 14.1051Z" fill="#F48C7F"/>
<path d="M139.102 13.2201C139.028 13.2076 139.028 17.1699 140.186 18.1044C141.333 19.0388 143.339 19.1261 143.924 18.1791C144.572 17.1325 143.962 12.9584 142.242 12.0738C140.523 11.1891 139.102 13.2201 139.102 13.2201Z" fill="#F7A491"/>
<path d="M138.803 10.7532C137.931 11.5257 137.495 12.0864 136.909 13.457C136.174 15.1391 137.632 16.8835 138.84 17.5812C140.061 18.279 140.161 19.1138 140.161 19.1138L140.211 18.6029C140.236 18.416 140.223 18.2665 140.198 18.1295C140.161 17.9675 140.086 17.8429 140.024 17.7058C139.924 17.4815 139.588 16.7215 139.463 16.5221C139.127 15.9988 139.052 15.8867 139.227 15.3758C139.351 14.9896 139.202 14.1423 139.401 13.5068L141.033 13.158C141.033 13.158 142.055 12.9088 142.578 12.3107C144.061 10.5912 141.121 8.68485 138.803 10.7532Z" fill="#184655"/>
<path d="M139.6 15.8113C139.8 16.2474 139.762 16.6959 139.501 16.8081C139.252 16.9202 138.878 16.671 138.678 16.2349C138.479 15.7988 138.516 15.3503 138.766 15.2381C139.04 15.1135 139.401 15.3752 139.6 15.8113Z" fill="#F7A491"/>
<path d="M128.462 4.85953C128.649 5.61958 128.985 6.8282 128.985 6.8282C128.96 7.16461 128.86 8.54766 128.748 10.2297L131.24 9.23295C131.24 9.23295 131.215 6.47932 131.327 6.30488C131.427 6.16782 131.577 6.34226 132.337 5.24579C132.561 4.93429 132.598 4.37359 132.598 4.37359C132.598 4.37359 132.648 3.67584 132.486 3.61354C132.337 3.55124 132.15 3.65092 132.1 3.77552C132.038 3.90012 132.063 4.17423 132 4.29883C131.938 4.42343 131.589 4.56049 131.427 4.56049C131.278 4.54803 131.452 2.51707 131.452 2.51707C131.452 2.51707 131.539 1.94391 131.577 1.74455C131.614 1.58257 131.764 1.1091 131.764 1.1091C131.764 1.1091 131.938 0.423802 131.726 0.373962C131.602 0.349042 131.278 0.897278 131.066 1.49535C130.829 2.13081 130.692 2.8161 130.63 2.80364C130.468 2.77872 130.555 1.65733 130.555 1.65733C130.555 1.65733 130.717 1.14648 130.704 0.89728C130.854 0.598242 130.954 0.0500045 130.692 0.000164909C130.642 -0.012295 130.293 0.68546 130.293 0.68546C130.293 0.68546 130.156 1.1714 130.081 1.40813C129.944 1.81931 129.919 2.45477 129.845 2.74134C129.782 2.97808 129.733 2.8784 129.708 2.89086C129.683 2.90332 129.72 2.57937 129.757 2.13081C129.782 1.90653 129.745 1.64487 129.82 1.39568C129.882 1.15894 129.907 0.82252 129.932 0.610701C129.969 0.0375458 129.608 0.0873842 129.483 0.62316C129.434 0.822519 129.384 1.0468 129.334 1.27108C129.134 2.14327 129.147 2.97808 129.047 2.97808C128.923 2.99054 129.01 1.47043 129.01 1.47043C129.01 1.47043 128.823 0.623161 128.636 1.40813C128.424 2.31771 128.449 3.05284 128.449 3.09022C128.437 3.30204 128.275 4.09947 128.462 4.85953Z" fill="#F8A492"/>
<path d="M140.111 20.8457C140.111 20.8457 136.884 20.6962 136.049 20.3224C135.539 20.0981 131.389 16.7464 131.389 16.7464L131.439 7.78775L128.524 7.56348C128.524 7.56348 127.016 17.4566 127.539 18.5407C128.075 19.662 134.155 24.2598 135.377 26.2658C136.074 27.4121 137.532 43.0742 137.756 43.2113C139.326 44.0336 144.186 44.8435 144.074 44.3451C140.884 30.6392 140.111 20.8457 140.111 20.8457Z" fill="#4D8F3C"/>
<path d="M82.1485 61.091C82.3354 61.851 82.6718 63.0596 82.6718 63.0596C82.6469 63.3961 82.5472 64.7791 82.4351 66.4612L84.927 65.4644C84.927 65.4644 84.9021 62.7108 85.0143 62.5363C85.1139 62.3993 85.2635 62.5737 86.0235 61.4772C86.2478 61.1657 86.2852 60.605 86.2852 60.605C86.2852 60.605 86.335 59.9073 86.173 59.845C86.0235 59.7827 85.8366 59.8824 85.7868 60.007C85.7245 60.1316 85.7494 60.4057 85.6871 60.5303C85.6248 60.6549 85.2759 60.7919 85.1139 60.7919C84.9644 60.7795 85.1389 58.7485 85.1389 58.7485C85.1389 58.7485 85.2261 58.1754 85.2635 57.976C85.3008 57.814 85.4504 57.3405 85.4504 57.3405C85.4504 57.3405 85.6248 56.6552 85.413 56.6054C85.2884 56.5805 84.9644 57.1287 84.7526 57.7268C84.5159 58.3623 84.3788 59.0475 84.3165 59.0351C84.1545 59.0102 84.2418 57.8888 84.2418 57.8888C84.2418 57.8888 84.4037 57.3779 84.3913 57.1287C84.5408 56.8297 84.6405 56.2814 84.3788 56.2316C84.329 56.2192 83.9801 56.9169 83.9801 56.9169C83.9801 56.9169 83.843 57.4028 83.7683 57.6396C83.6312 58.0508 83.6063 58.6862 83.5315 58.9728C83.4692 59.2095 83.4194 59.1098 83.3945 59.1223C83.3696 59.1348 83.4069 58.8108 83.4443 58.3623C83.4692 58.138 83.4319 57.8763 83.5066 57.6271C83.5689 57.3904 83.5938 57.054 83.6188 56.8421C83.6561 56.269 83.2948 56.3188 83.1702 56.8546C83.1204 57.054 83.0705 57.2782 83.0207 57.5025C82.8213 58.3747 82.8338 59.2095 82.7341 59.2095C82.6095 59.222 82.6967 57.7019 82.6967 57.7019C82.6967 57.7019 82.5098 56.8546 82.3229 57.6396C82.1111 58.5492 82.136 59.2843 82.136 59.3217C82.1236 59.5335 81.9616 60.3309 82.1485 61.091Z" fill="#F8A492"/>
<path d="M108.563 59.0851C108.376 59.8452 108.04 61.0538 108.04 61.0538C108.065 61.3902 108.164 62.7608 108.277 64.4553L105.785 63.4585C105.785 63.4585 105.81 60.7049 105.697 60.5305C105.598 60.3934 105.448 60.5678 104.688 59.4714C104.464 59.1599 104.426 58.5992 104.426 58.5992C104.426 58.5992 104.377 57.9014 104.539 57.8391C104.688 57.7768 104.875 57.8765 104.925 58.0011C104.987 58.1257 104.962 58.3998 105.025 58.5244C105.087 58.649 105.436 58.7861 105.598 58.7861C105.747 58.7736 105.573 56.7427 105.573 56.7427C105.573 56.7427 105.486 56.1695 105.448 55.9701C105.411 55.8082 105.261 55.3347 105.261 55.3347C105.261 55.3347 105.087 54.6494 105.299 54.5995C105.423 54.5746 105.747 55.1229 105.959 55.7209C106.196 56.3564 106.333 57.0417 106.395 57.0292C106.557 57.0043 106.47 55.8829 106.47 55.8829C106.47 55.8829 106.308 55.3721 106.32 55.1229C106.171 54.8238 106.071 54.2756 106.333 54.2258C106.383 54.2133 106.732 54.911 106.732 54.911C106.732 54.911 106.869 55.397 106.943 55.6337C107.08 56.0449 107.105 56.6804 107.18 56.9669C107.242 57.2037 107.292 57.104 107.317 57.1165C107.342 57.1289 107.305 56.805 107.267 56.3564C107.242 56.1321 107.28 55.8705 107.205 55.6213C107.143 55.3845 107.118 55.0481 107.093 54.8363C107.056 54.2631 107.417 54.313 107.541 54.8487C107.591 55.0481 107.641 55.2724 107.691 55.4967C107.89 56.3689 107.878 57.2037 107.978 57.2037C108.102 57.2161 108.015 55.696 108.015 55.696C108.015 55.696 108.202 54.8488 108.389 55.6337C108.601 56.5433 108.576 57.2784 108.576 57.3158C108.588 57.5276 108.75 58.3126 108.563 59.0851Z" fill="#F8A492"/>
<path d="M93.0379 68.0443C93.0379 68.0443 94.3089 66.7111 95.3181 68.3308C95.3181 68.3308 96.1031 67.8948 96.6513 68.6797C96.6513 68.6797 98.0717 68.2561 98.4082 70.3743C98.4082 70.3743 99.1433 70.2372 99.2305 71.1094C99.3302 71.9816 98.8816 72.5548 98.8816 72.5548C98.8816 72.5548 99.2928 72.8663 99.1059 73.6637C98.9439 74.3365 98.3832 74.4487 98.3832 74.4487C98.3832 74.4487 98.2337 75.595 97.7353 75.9314C97.2369 76.2803 96.5641 76.1058 96.5641 76.1058C96.5641 76.1058 96.3897 76.7288 95.804 76.6665C95.2184 76.6042 94.5082 76.056 93.8603 76.3052C93.2124 76.5544 91.5303 76.2927 91.5303 76.2927C91.5303 76.2927 89.6489 75.4579 90.2096 73.5266C90.2096 73.5266 89.2128 72.6295 90.085 71.558C90.085 71.558 89.4495 69.8759 90.7079 68.8915C91.9664 67.9072 93.0379 68.0443 93.0379 68.0443Z" fill="#07345A"/>
<path d="M101.76 123.989C101.76 123.989 103.143 125.696 103.48 125.908C103.828 126.12 103.33 128.599 102.396 128.761C101.872 128.849 101.573 128.275 101.573 128.275L101.723 127.565L99.7541 125.534L101.76 123.989Z" fill="#F7A491"/>
<path d="M94.6454 124.413C94.6454 124.413 95.7918 126.282 96.1157 126.544C96.4272 126.793 95.6173 129.198 94.6704 129.235C94.1346 129.26 93.9228 128.649 93.9228 128.649L94.1595 127.964L92.465 125.696L94.6454 124.413Z" fill="#F7A491"/>
<path d="M96.0408 126.469C96.0408 126.469 95.3804 127.316 95.0191 127.652C94.5581 128.089 93.96 128.512 93.96 128.512C93.96 128.512 93.2871 129.733 93.1003 130.169C92.6891 131.116 92.2281 132.175 92.2904 132.711C92.3153 132.886 92.7015 133.06 93.013 132.96C94.3462 132.549 97.7478 129.434 98.1839 128.599C98.6823 127.615 96.0408 126.469 96.0408 126.469Z" fill="#07345A"/>
<path d="M86.3098 97.9348C86.4344 97.5859 86.5466 97.2619 86.6712 96.9629C88.0916 97.2744 89.6865 97.6108 91.3312 97.9597L91.5305 104.003C91.5305 103.542 90.297 113.634 90.297 113.634C90.297 113.634 93.4992 120.724 95.6921 124.848C94.795 125.97 94.3714 126.331 93.0755 127.091C89.674 123.017 85.2258 115.566 85.0514 114.32C84.9268 113.622 84.8395 102.096 86.3098 97.9348Z" fill="#B75742"/>
<path d="M98.969 99.6804C98.5329 104.39 97.5735 113.374 97.6483 114.097C97.885 114.994 102.171 123.317 102.944 124.538C102.333 125.46 101.386 126.457 100.365 126.731C100.165 126.781 93.1004 116.726 92.7142 115.928C92.2781 115.031 91.5554 110.097 91.5429 104.004L91.3436 97.9609C94.0847 98.559 96.6016 99.1322 98.969 99.6804Z" fill="#F47458"/>
<path d="M89.9603 78.2354L93.1874 78.6839C93.1874 78.6839 95.7791 78.7462 96.103 78.7462C96.427 78.7462 98.458 90.5333 99.0436 94.969C99.6292 99.4047 99.1806 100.19 99.1806 100.19C99.1806 100.19 95.0813 101.112 92.0536 100.838C88.9012 100.563 85.3626 98.8565 85.3626 98.8565C85.3626 98.8565 88.054 90.3339 88.5897 87.68C89.1006 85.0135 89.9603 78.2354 89.9603 78.2354Z" fill="#96D9C9"/>
<path d="M82.1231 63.9688C82.1231 63.9688 81.9113 72.753 82.2477 73.4259C82.7337 74.3977 88.1537 81.3379 88.1537 81.3379C88.1537 81.3379 85.5621 92.178 84.478 95.9285C84.3659 96.3023 83.88 98.7444 83.88 98.9811C83.88 99.5045 86.1726 100.177 86.4467 100.14C86.6959 100.103 88.6895 89.7857 89.9729 84.7395C90.409 83.0325 91.1441 81.4127 92.1658 79.9673L93.0504 78.7089L86.2349 71.8808C86.2349 71.8808 85.4001 64.2803 85.4001 63.6448C85.3876 63.4704 82.4471 63.3458 82.1231 63.9688Z" fill="#13375B"/>
<path d="M95.9783 78.7349L104.476 70.0752C104.476 70.0752 105.66 61.8891 105.747 61.5776C105.834 61.2785 107.94 61.1166 108.787 61.0294C109.061 61.0044 108.65 69.7513 108.239 71.2215C107.753 72.9535 101.336 80.8406 101.336 80.8406C101.336 80.8406 100.19 85.1143 100.464 88.2542C100.925 93.4625 102.171 100.627 101.947 100.851C100.564 101.723 95.2681 101.811 94.9317 101.275C91.2186 95.3065 95.9783 78.7349 95.9783 78.7349Z" fill="#13375B"/>
<path d="M93.2497 77.1147L93.0254 78.8217C93.0254 78.8217 92.5145 81.2763 93.1749 81.7497C93.8353 82.2232 95.9908 78.7594 95.9908 78.7594L95.7666 74.4482L93.2497 77.1147Z" fill="#F7A491"/>
<path d="M95.8165 75.8311C95.2682 77.3013 93.9724 78.2109 93.0504 78.5598L93.2497 77.1144L95.7542 74.4355L95.8165 75.8311Z" fill="#F47458"/>
<path d="M99.2681 71.5079C99.2681 72.1683 98.8943 72.6916 98.4333 72.6916C97.9723 72.6916 97.5984 72.1558 97.5984 71.5079C97.5984 70.8475 97.9723 70.3242 98.4333 70.3242C98.8943 70.3242 99.2681 70.8475 99.2681 71.5079Z" fill="#07345A"/>
<path d="M95.754 69.6382C96.3113 69.6382 96.7632 69.3314 96.7632 68.9529C96.7632 68.5744 96.3113 68.2676 95.754 68.2676C95.1966 68.2676 94.7447 68.5744 94.7447 68.9529C94.7447 69.3314 95.1966 69.6382 95.754 69.6382Z" fill="#07345A"/>
<path d="M94.2218 69.9004C92.8762 69.4394 91.4557 70.3241 91.2439 71.7071C91.1567 72.3052 91.0695 73.0653 91.057 73.8876C91.0196 75.8687 92.0538 77.8125 92.9509 77.8125C93.848 77.8125 96.34 76.5291 96.4397 73.7007C96.502 71.9688 95.6298 70.3864 94.2218 69.9004Z" fill="#F7A491"/>
<path d="M95.779 73.9371C95.779 74.3732 96.0656 74.7345 96.4269 74.7345C96.7882 74.7345 97.0748 74.3732 97.0748 73.9371C97.0748 73.501 96.7882 73.1396 96.4269 73.1396C96.0656 73.1396 95.779 73.501 95.779 73.9371Z" fill="#F7A491"/>
<path d="M90.3092 68.9159C89.3747 69.6511 89.0507 70.7724 89.574 71.4204C90.0974 72.0683 91.2935 71.9935 92.2156 71.2584C93.15 70.5233 93.474 69.4019 92.9507 68.7539C92.4274 68.106 91.2437 68.1808 90.3092 68.9159Z" fill="#07345A"/>
<path d="M93.6111 70.1126C94.086 70.1126 94.4709 69.8504 94.4709 69.527C94.4709 69.2036 94.086 68.9414 93.6111 68.9414C93.1363 68.9414 92.7514 69.2036 92.7514 69.527C92.7514 69.8504 93.1363 70.1126 93.6111 70.1126Z" fill="#07345A"/>
<path d="M90.1721 71.9927C90.1721 72.4039 90.5085 72.7403 90.9073 72.7403C91.3184 72.7403 91.6424 72.4039 91.6424 71.9927C91.6424 71.5815 91.306 71.2451 90.9073 71.2451C90.5085 71.2451 90.1721 71.5815 90.1721 71.9927Z" fill="#07345A"/>
<path d="M103.405 125.846C103.405 125.846 102.856 126.768 102.545 127.142C102.134 127.627 101.598 128.126 101.598 128.126C101.598 128.126 101.087 129.422 100.963 129.87C100.676 130.867 100.352 132.063 100.489 132.587C100.526 132.748 100.9 133.072 101.199 132.873C102.37 132.113 105.485 128.549 105.809 127.665C106.171 126.656 103.405 125.846 103.405 125.846Z" fill="#07345A"/>
<path d="M164.222 89.5488C164.222 89.5488 160.496 90.122 157.743 92.8632C154.989 95.6043 153.344 100.015 153.344 100.015L158.976 101.66C158.989 101.66 156.733 96.4018 164.222 89.5488Z" fill="#FAE0B2"/>
<path d="M165.256 92.2534L164.857 89.0761L162.017 87.6058C161.693 87.4438 161.705 86.9704 162.029 86.8209L164.92 85.4503L165.431 82.2979C165.493 81.9366 165.929 81.7995 166.191 82.0736L168.384 84.4036L171.548 83.9177C171.91 83.8679 172.171 84.2416 171.997 84.5656L170.452 87.3691L171.885 90.2224C172.047 90.5464 171.773 90.9202 171.411 90.8579L168.271 90.2598L165.991 92.515C165.742 92.7642 165.306 92.6147 165.256 92.2534Z" fill="#FFC45B"/>
<path d="M66.1747 106.445C66.1747 106.445 69.9002 107.018 72.6538 109.76C75.4075 112.501 77.0522 116.912 77.0522 116.912L71.4203 118.556C71.4078 118.569 73.6631 113.311 66.1747 106.445Z" fill="#FAE0B2"/>
<path d="M65.1404 109.149L65.5391 105.972L68.38 104.501C68.7039 104.339 68.6915 103.866 68.3675 103.716L65.4768 102.346L64.9659 99.1934C64.9036 98.8321 64.4551 98.695 64.2059 98.9691L62.0129 101.299L58.8481 100.813C58.4868 100.763 58.2251 101.137 58.3996 101.461L59.9446 104.265L58.5117 107.118C58.3497 107.442 58.6239 107.816 58.9852 107.753L62.1251 107.155L64.4052 109.411C64.6544 109.672 65.0905 109.51 65.1404 109.149Z" fill="#FFC45B"/>
<path d="M189.44 92.3145L190.313 90.8442L189.59 89.2867C189.503 89.1123 189.665 88.9129 189.852 88.9628L191.521 89.3366L192.78 88.1778C192.917 88.0407 193.154 88.1279 193.178 88.3273L193.34 90.0343L194.836 90.8691C195.01 90.9688 194.998 91.218 194.811 91.2928L193.241 91.9656L192.904 93.6477C192.867 93.8346 192.63 93.9093 192.493 93.7598L191.359 92.4764L189.665 92.6758C189.478 92.7007 189.341 92.4889 189.44 92.3145Z" fill="#466EB6"/>
<path d="M105.324 25.7168L106.42 23.8603L105.511 21.9041C105.411 21.6798 105.611 21.4306 105.847 21.4929L107.953 21.9664L109.535 20.4961C109.71 20.3341 110.009 20.4463 110.034 20.683L110.233 22.8386L112.115 23.8852C112.326 24.0098 112.314 24.3213 112.09 24.421L110.109 25.2807L109.685 27.3989C109.635 27.6356 109.336 27.7229 109.174 27.536L107.741 25.9162L105.598 26.1778C105.374 26.1903 105.199 25.9286 105.324 25.7168Z" fill="#F79C8D"/>
<path d="M186.051 30.3271L183.148 32.2709L184.768 35.0868L181.989 37.1178L183.21 40.0085L181.379 41.865L182.326 42.7995L184.768 40.3075L183.609 37.5664L186.5 35.4482L184.905 32.6821L187.534 30.9252L186.051 30.3271Z" fill="#F48C7F"/>
<path d="M190.512 77.0388L188.456 74.2104L185.702 75.9548L183.559 73.2635L180.718 74.5967L178.787 72.8398L177.903 73.8242L180.482 76.1666L183.173 74.8957L185.403 77.6992L188.107 75.9922L189.976 78.5465L190.512 77.0388Z" fill="#F48C7F"/>
<path d="M94.2343 18.5654L94.9196 15.1514L91.7922 14.2917L92.328 10.8901L89.4248 9.70642L89.4124 7.08984L88.0916 7.1023L88.1041 10.5911L90.8577 11.7125L90.297 15.2511L93.3871 16.0984L92.7516 19.2009L94.2343 18.5654Z" fill="#F48C7F"/>
<path d="M67.0838 23.125L68.4046 25.6045L71.2704 25.4425L72.5662 28.3332L75.569 27.2118L77.1764 30.414L80.0671 29.7287L82.1105 32.5571L81.0389 33.3421L79.5064 31.2239L76.4661 31.9466L74.9211 28.869L71.8684 30.0029L70.4355 26.8131L67.6445 26.9626L66.411 24.67L64.5919 25.156L64.2554 23.8851L67.0838 23.125Z" fill="#FFC45B"/>
<path d="M54.7112 42.7127L52.6055 42.937L51.8828 39.5603L48.7429 39.498L47.796 37.0684L46.5624 37.5543L47.8334 40.7939L50.8113 40.8686L51.5589 44.3699L54.7361 44.0459L54.7112 42.7127Z" fill="#4CAF50"/>
<path d="M50.9109 79.207L50.1135 81.1882L46.7991 80.2661L45.2915 83.0073L42.6874 82.7207L42.5503 84.029L46.0141 84.4153L47.4595 81.8112L50.8984 82.7706L52.0946 79.8051L50.9109 79.207Z" fill="#4CAF50"/>
<path d="M56.5306 57.1409C58.873 59.3961 58.9602 63.1217 56.705 65.4641C54.4498 67.8066 50.7242 67.8938 48.3818 65.6386C46.0393 63.3833 45.9521 59.6578 48.2073 57.3153C50.4501 54.9604 54.1881 54.8857 56.5306 57.1409Z" fill="#FFF3D9"/>
<path d="M56.4061 62.0625L53.9017 62.835L53.1167 65.3395C53.0544 65.5388 52.7803 65.5887 52.6681 65.4142L51.1605 63.2711L48.5439 63.296C48.3321 63.296 48.2075 63.0593 48.3321 62.8849L49.902 60.7916L49.0672 58.2996C49.0049 58.1003 49.1918 57.9134 49.3912 57.9757L51.8707 58.8229L53.9764 57.2654C54.1509 57.1408 54.3876 57.2654 54.3876 57.4773L54.3502 60.0938L56.4809 61.614C56.6428 61.7261 56.6055 62.0002 56.4061 62.0625Z" fill="#FED333"/>
<path d="M210.411 66.9343C212.753 69.1895 212.84 72.9151 210.585 75.2575C208.33 77.6 204.604 77.6872 202.262 75.432C199.919 73.1767 199.832 69.4512 202.087 67.1087C204.343 64.7663 208.056 64.6915 210.411 66.9343Z" fill="#FFF3D9"/>
<path d="M210.273 71.8682L207.769 72.6407L206.984 75.1451C206.921 75.3445 206.647 75.3943 206.535 75.2199L205.028 73.0768L202.411 73.1017C202.199 73.1017 202.075 72.865 202.199 72.6905L203.769 70.5973L202.934 68.1053C202.872 67.9059 203.059 67.719 203.258 67.7813L205.738 68.6286L207.844 67.0711C208.018 66.9465 208.255 67.0711 208.255 67.2829L208.217 69.8995L210.348 71.4196C210.522 71.5318 210.473 71.8059 210.273 71.8682Z" fill="#FED333"/>
<path d="M183.821 59.5464L184.855 61.2534C184.968 61.4403 185.242 61.4154 185.316 61.216L186.052 59.3595L187.995 58.9109C188.207 58.8611 188.269 58.587 188.107 58.4499L186.562 57.179L186.737 55.1854C186.762 54.9736 186.525 54.8241 186.338 54.9487L184.656 56.0202L182.812 55.2477C182.613 55.1605 182.401 55.3474 182.463 55.5592L182.962 57.4905L181.653 58.9982C181.516 59.1601 181.616 59.4218 181.84 59.4343L183.821 59.5464Z" fill="#F47458"/>
<path d="M180.208 98.7323C180.208 99.3927 179.672 99.9284 179.012 99.9284C178.351 99.9284 177.815 99.3927 177.815 98.7323C177.815 98.0719 178.351 97.5361 179.012 97.5361C179.672 97.5361 180.208 98.0719 180.208 98.7323Z" fill="#4CAF50"/>
<path d="M40.5569 62.5614C40.5569 63.2218 39.9837 63.7575 39.261 63.7575C38.5508 63.7575 37.9652 63.2218 37.9652 62.5614C37.9652 61.901 38.5384 61.3652 39.261 61.3652C39.9713 61.3652 40.5569 61.901 40.5569 62.5614Z" fill="#4CAF50"/>
<path d="M108.152 5.48176L109.722 5.79325C109.722 5.79325 112.015 4.7217 112.189 4.21085C112.364 3.69999 112.289 2.50384 112.613 2.42908C112.949 2.35432 113.622 2.37924 113.871 3.17667C114.058 3.74983 113.41 5.54405 113.572 5.71849C113.672 5.81817 114.569 6.02999 115.217 6.16705C115.653 6.25427 115.989 6.59069 116.114 7.01433C116.189 7.3009 116.064 7.6124 115.803 7.76192L115.391 7.9862L115.591 8.42229C115.74 8.74625 115.603 9.12005 115.279 9.26957L114.955 9.41909L115.092 9.68075C115.279 10.0172 115.13 10.4408 114.781 10.5903L114.494 10.7149L114.519 10.7897C114.606 11.1136 114.444 11.4501 114.145 11.5746L113.859 11.6868L109.685 10.8644C109.299 10.7897 108.925 10.6277 108.601 10.4034L107.18 9.86764C107.031 9.80534 106.944 9.64336 106.981 9.48139L107.778 5.78079C107.803 5.55651 107.978 5.44438 108.152 5.48176Z" fill="#96D9C9"/>
</svg>
